<?xml version="1.0" encoding="UTF-8"?>
<svg width="254px" height="98px" viewBox="0 0 254 98" version="1.1" xmlns="http://www.w3.org/2000/svg" xmlns:xlink="http://www.w3.org/1999/xlink">
    <!-- Generator: Sketch 59.1 (86144) - https://sketch.com -->
    <title>heritagegb-logo</title>
    <desc>Created with Sketch.</desc>
    <defs>
        <polygon id="path-1" points="0 97.079 253.919 97.079 253.919 0 0 0"></polygon>
    </defs>
    <g id="Page-1" stroke="none" stroke-width="1" fill="none" fill-rule="evenodd">
        <g id="heritagegb-logo">
            <mask id="mask-2" fill="white">
                <use xlink:href="#path-1"></use>
            </mask>
            <g id="Path_49"></g>
            <g id="Group_25" mask="url(#mask-2)" fill="#FFFFFF" fill-rule="nonzero">
                <g id="Group_1" transform="translate(0.000000, 10.780000)">
                    <path d="M235.11,80.848 L18.811,80.848 C8.42826297,80.8369799 0.0136762062,72.4237351 0.001,62.041 L0.001,18.81 C0.0120232649,8.42609327 8.42709327,0.0110232649 18.811,0 L235.111,0 C245.494126,0.0121252671 253.907979,8.4268731 253.919,18.81 L253.919,62.041 C253.906324,72.4231829 245.492185,80.8359799 235.11,80.847 M18.81,1.147 C9.06018215,1.15912253 1.15957052,9.06018148 1.148,18.81 L1.148,62.041 C1.1601258,71.7903307 9.06166679,79.6900823 18.811,79.7 L235.111,79.7 C244.860333,79.6900823 252.761874,71.7903307 252.774,62.041 L252.774,18.81 C252.762428,9.05979162 244.861208,1.15857165 235.111,1.147 L18.81,1.147 Z" id="Path_25"></path>
                </g>
                <g id="Group_2" transform="translate(0.000000, 10.780000)">
                    <path d="M235.11,80.848 L18.811,80.848 C8.42826297,80.8369799 0.0136762062,72.4237351 0.001,62.041 L0.001,18.81 C0.0120232649,8.42609327 8.42709327,0.0110232649 18.811,0 L235.111,0 C245.494126,0.0121252671 253.907979,8.4268731 253.919,18.81 L253.919,62.041 C253.906324,72.4231829 245.492185,80.8359799 235.11,80.847 M18.81,1.147 C9.06018215,1.15912253 1.15957052,9.06018148 1.148,18.81 L1.148,62.041 C1.1601258,71.7903307 9.06166679,79.6900823 18.811,79.7 L235.111,79.7 C244.860333,79.6900823 252.761874,71.7903307 252.774,62.041 L252.774,18.81 C252.762428,9.05979162 244.861208,1.15857165 235.111,1.147 L18.81,1.147 Z" id="Path_26"></path>
                </g>
                <g id="Group_3" transform="translate(31.328000, 0.001000)">
                    <path d="M4.479,0.598 C4.56184271,0.598 4.629,0.530842712 4.629,0.448 C4.629,0.365157288 4.56184271,0.298 4.479,0.298 C4.39615729,0.298 4.329,0.365157288 4.329,0.448 C4.329,0.530842712 4.39615729,0.598 4.479,0.598 M0.493,1.677 C0.493,1.677 0.913,1.617 0.913,1.795 C0.913,1.973 1.272,2.038 1.272,2.038 L1.451,2.096 C1.61844999,2.19592593 1.71252925,2.38408445 1.692,2.578 C1.634,2.878 1.571,2.878 1.634,3.054 L1.752,3.416 L2.111,3.716 L2.35,3.176 C2.471,2.995 2.709,3.116 2.709,3.116 C2.709,3.116 3.068,3.237 2.89,3.416 C2.712,3.595 2.89,3.534 2.709,3.834 C2.528,4.134 2.769,4.134 2.769,4.134 C2.9676499,4.16686454 3.1703501,4.16686454 3.369,4.134 C3.52553347,4.05944432 3.66770675,3.95789198 3.789,3.834 C3.789,3.834 3.968,3.655 3.729,3.595 C3.49,3.535 3.548,3.236 3.309,3.115 C3.15694551,3.0328214 3.0321786,2.90805449 2.95,2.756 C2.95,2.517 2.95,2.456 3.129,2.456 L3.31,2.456 C3.669,2.456 3.73,2.156 3.91,2.217 C4.09,2.278 4.091,2.157 4.269,2.096 C4.447,2.035 4.51,1.496 4.51,1.496 L4.39,1.257 L4.09,1.38 L3.731,1.317 L3.191,1.795 L3.006,1.918 L2.652,1.918 C2.471,1.918 2.352,1.677 2.352,1.677 C2.173,1.498 2.052,1.677 2.052,1.677 L1.634,1.377 L1.572,1.197 L1.512,0.777 L1.572,1.11022302e-16 L1.512,0.3 C1.153,0.659 0.912,0.778 0.735,0.72 C0.558,0.662 0.554,1.079 0.315,0.959 C0.076,0.839 -0.044,0.659 0.015,1.017 C0.095865157,1.28462052 0.26417936,1.51737301 0.493,1.678" id="Path_27"></path>
                </g>
                <g id="Group_4" transform="translate(14.531000, 2.932000)">
                    <path d="M5.51,14.026 C5.65253062,14.01952 5.7924489,14.0658034 5.903,14.156 C5.903,14.156 5.51,14.091 5.378,14.35 C5.30330098,14.4926235 5.25935446,14.649332 5.249,14.81 L5.51,14.875 L5.903,15.007 L6.361,15.207 C6.361,15.207 6.561,15.142 6.687,15.407 C6.813,15.672 6.558,15.994 6.819,15.994 C7.08,15.994 7.277,15.407 7.277,15.407 C7.45998253,15.3017862 7.54359913,15.0822926 7.477,14.882 L7.345,14.554 L7.545,14.163 C7.806,13.904 7.61,13.77 7.936,13.641 C8.262,13.512 8.394,13.441 8.394,13.441 L8.655,13.506 C8.916,13.571 8.981,13.441 8.981,13.441 L9.046,12.983 C9.046,12.983 9.246,12.655 9.446,12.655 C9.55020016,12.6472268 9.65005926,12.6981202 9.705,12.787 L10.098,12.587 L10.298,12.132 L9.776,12 C9.7130279,12.0460534 9.63424535,12.0649924 9.55722154,12.0525934 C9.48019774,12.0401945 9.41133849,11.9974888 9.366,11.934 L9.627,11.541 C9.627,11.541 9.562,11.476 9.827,11.476 C9.99427366,11.4626804 10.1428428,11.3640123 10.22,11.215 L10.285,10.822 L10.155,10.494 L10.155,10.168 L9.955,9.907 L9.82,9.645 C9.82,9.645 8.25,11.215 7.795,11.215 C7.57827603,11.1887745 7.36002129,11.249836 7.18837061,11.3847178 C7.01671992,11.5195996 6.90577352,11.7172218 6.88,11.934 C6.89120018,12.2259567 7.00688975,12.5041794 7.206,12.718 C7.206,12.718 6.815,12.392 6.684,12.85 C6.684,12.85 6.619,12.261 6.095,12.261 C5.571,12.261 5.443,12.461 5.443,12.783 C5.443,13.105 4.854,13.176 5.05,13.502 C5.246,13.828 5.25,14.027 5.508,14.027 M7.797,14.811 L8.056,15.139 L8.456,15.139 C8.847,15.139 8.521,15.007 8.585,14.811 C8.649,14.615 8.192,14.746 8.192,14.746 L7.931,14.418 C8.10756809,14.4242219 8.28324594,14.4459725 8.456,14.483 C8.782,14.548 8.456,14.483 8.782,14.483 C8.86903843,14.4849318 8.95308498,14.4512062 9.01464561,14.3896456 C9.07620623,14.328085 9.10993184,14.2440384 9.108,14.157 C9.11332451,13.9810786 9.13474728,13.8060143 9.172,13.634 C9.219,13.397 8.672,13.609 8.372,13.743 C8.265,13.791 8.189,13.834 8.189,13.834 L7.863,13.964 L7.537,14.164 L7.798,14.555 L7.797,14.811 Z M6.687,16.247 L6.948,16.247 L6.49,15.658 L6.032,15.399 L5.313,16.183 L5.248,16.705 L5.574,17.031 L5.902,17.163 L6.228,16.641 L6.428,16.38 L6.687,16.247 Z M2.637,23.957 C2.437,24.151 2.637,23.825 2.437,24.151 C2.237,24.477 2.115,24.669 2.111,24.673 L2.176,25.262 C2.30720518,25.1542152 2.4657608,25.0849769 2.634,25.062 C2.80140351,25.0490567 2.9501393,24.9502779 3.027,24.801 L3.156,24.54 L3.288,24.214 L3.614,23.886 C3.614,23.886 3.746,24.018 3.746,23.686 C3.7498041,23.5096334 3.72722119,23.333689 3.679,23.164 L4.007,23.032 L4.007,22.134 L3.807,21.806 L3.807,21.543 L3.939,21.286 L4.133,20.761 C3.876,20.434 3.865,20.034 4.072,20.034 C4.465,20.034 4.465,19.773 4.465,19.773 L4.594,19.251 L4.4,19.119 L4.4,18.858 C4.4,18.858 4.465,18.53 4.661,18.53 C4.79386166,18.5147235 4.91318339,18.44152 4.987,18.33 L4.987,18.004 C4.987,18.004 5.248,17.68 4.922,17.549 L4.594,17.417 C4.594,17.417 4.529,17.285 4.855,17.089 C5.181,16.893 4.726,15.848 4.268,16.176 C3.81,16.504 4.203,16.437 4.203,16.437 C4.203,16.437 4.79,16.566 4.594,16.895 C4.398,17.224 4.465,17.482 4.268,17.417 C4.16328062,17.3785413 4.05339891,17.3559583 3.942,17.35 C3.66915255,17.3627045 3.40173648,17.4307493 3.156,17.55 L2.765,17.75 C2.765,17.75 2.437,17.685 2.502,17.944 C2.54184546,18.1008109 2.63478098,18.2389774 2.765,18.335 L3.091,18.535 L3.417,18.735 L3.288,19.193 C3.24779148,19.3641862 3.22600097,19.5391807 3.223,19.715 L3.615,19.715 L3.55,20.106 L3.35,20.432 L3.15,20.632 L2.889,20.958 C2.96284153,21.0392595 3.02974237,21.1265651 3.089,21.219 L3.221,21.413 C3.22785607,21.6115639 3.20527798,21.8100489 3.154,22.002 L2.893,22.263 L2.764,22.463 C2.764,22.463 2.713,22.394 2.764,22.595 C2.829,22.854 2.958,23.05 2.697,23.117 L2.436,23.182 L2.565,23.443 L2.828,23.575 C2.85496326,23.6536065 2.84890751,23.739786 2.81121627,23.8138492 C2.77352503,23.8879125 2.70741857,23.9435318 2.628,23.968 M1.98,25.857 L1.915,25.397 C1.915,25.397 1.457,25.464 1.457,25.66 C1.46022787,25.7927362 1.48210885,25.9243587 1.522,26.051 C1.722,26.314 1.98,25.857 1.98,25.857 M9.038,15.464 C9.038,15.464 8.386,15.857 8.779,15.919 C9.172,15.981 9.038,15.464 9.038,15.464 M10.257,21.334 C10.085,21.352 9.957,21.352 9.957,21.352 L10.02,20.103 L10.02,19.903 L10.152,19.316 L10.02,19.058 L9.955,18.926 C9.955,18.926 9.955,18.404 9.823,18.6 C9.691,18.796 9.691,18.337 9.691,18.337 L9.497,17.946 L9.037,17.814 C8.89302193,17.947262 8.82100008,18.1410527 8.843,18.336 C8.83170655,18.5404056 8.87630273,18.744027 8.972,18.925 L9.037,19.385 L8.779,19.385 L8.453,19.318 L8.12,19.19 L7.794,18.862 L7.662,18.601 L7.537,18.334 C7.53145758,18.4459197 7.50955867,18.556425 7.472,18.662 L7.405,18.862 C7.43971679,19.039204 7.48377829,19.2144486 7.537,19.387 C7.798,19.581 7.928,19.713 7.737,19.778 L7.537,19.843 L7.276,19.714 L7.076,19.582 L6.882,19.515 L6.682,19.647 L6.62,20.034 L6.749,20.362 L7.142,20.556 L7.403,20.817 L7.731,20.884 L7.86,20.556 C7.86,20.556 7.989,20.817 8.186,20.817 C8.383,20.817 8.84,20.752 8.644,20.884 C8.448,21.016 8.711,21.145 8.711,21.145 L8.905,21.277 L9.105,21.404 L8.254,21.277 L8.189,21.534 L8.647,21.864 L8.908,22.255 C8.843,22.648 9.037,22.713 9.037,22.713 L9.237,22.778 L9.692,22.978 C9.79021603,22.8349751 9.92629065,22.7220989 10.085,22.652 L10.478,22.652 L10.478,22.846 C10.716057,22.8091996 10.9562028,22.7874896 11.197,22.781 L11.397,23.042 C11.265,23.174 11.332,23.305 11.136,23.37 C11.0237736,23.406439 10.9141824,23.4505428 10.808,23.502 L10.413,23.834 L10.281,24.16 C10.418377,24.2118926 10.5495242,24.2789756 10.672,24.36 L10.872,24.295 L11.329,23.834 L11.59,23.376 L11.851,23.115 L12.045,22.983 L12.245,22.657 L12.506,22.396 L12.638,22.135 C12.312,21.935 12.245,21.807 12.049,21.935 C11.9109957,22.013383 11.7484313,22.0366064 11.594,22 L11.394,22.132 L11.001,22 C10.8733211,21.90196 10.7815747,21.7645162 10.74,21.609 L10.805,21.216 C10.6288741,21.2793193 10.4447569,21.317691 10.258,21.33 M1.908,17.621 C2.02982741,17.6204525 2.12845245,17.5218274 2.129,17.4 C2.12845245,17.2781726 2.02982741,17.1795475 1.908,17.179 C1.78639766,17.1800858 1.6880858,17.2783977 1.687,17.4 C1.6880858,17.5216023 1.78639766,17.6199142 1.908,17.621 M1.982,18.97 C1.98199686,19.0154355 2.0001818,19.0589815 2.03249686,19.0909208 C2.06481192,19.1228601 2.10856767,19.1405345 2.15399853,19.14 C2.24821738,19.1400064 2.32490445,19.064211 2.326,18.97 C2.326,18.875007 2.24899298,18.798 2.15399853,18.798 C2.10830112,18.797732 2.06439634,18.8157673 2.0320818,18.8480818 C1.99976726,18.8803963 1.98173196,18.9243011 1.982,18.97 M8.455,17.376 C8.45473229,17.4275336 8.47508554,17.477034 8.51152579,17.5134742 C8.54796604,17.5499145 8.5974664,17.5702677 8.649,17.57 C8.72884072,17.5872289 8.81113543,17.5541768 8.85687923,17.4865094 C8.90262303,17.418842 8.90262303,17.330158 8.85687923,17.2624906 C8.81113543,17.1948232 8.72884072,17.1617711 8.649,17.179 C8.59640368,17.1786928 8.54596033,17.1998651 8.5093391,17.2376189 C8.47271787,17.2753728 8.45309143,17.3264374 8.455,17.379 M8.209,23.849 C8.209,23.769 7.988,23.702 7.718,23.702 C7.448,23.702 7.229,23.769 7.229,23.849 C7.229,23.929 7.448,23.996 7.718,23.996 C7.988,23.996 8.209,23.931 8.209,23.849 M9.92,25.39 C9.92,25.2408831 9.79911688,25.12 9.65,25.12 C9.50088312,25.12 9.38,25.2408831 9.38,25.39 C9.38,25.5391169 9.50088312,25.66 9.65,25.66 C9.79911688,25.66 9.92,25.5391169 9.92,25.39 M8.67,25.071 C8.88284596,25.0929353 9.0872108,24.9814873 9.18403748,24.7906754 C9.28086417,24.5998636 9.25014224,24.3691217 9.10676282,24.2102919 C8.9633834,24.0514621 8.73697767,23.9973687 8.53728604,24.074231 C8.3375944,24.1510932 8.20588569,24.3430268 8.206,24.557 C8.19295563,24.8267954 8.40028093,25.0564618 8.67,25.071 M9.186,26.199 C9.186,26.226 9.262,26.248 9.358,26.248 C9.454,26.248 9.53,26.226 9.53,26.199 C9.53,26.172 9.452,26.15 9.358,26.15 C9.264,26.15 9.186,26.172 9.186,26.199 M29.898,1.491 C29.9305304,1.49100109 29.9617141,1.47801038 29.9846225,1.4549142 C30.0075309,1.43181803 30.0202666,1.40052933 30.02,1.36799793 C30.0202692,1.3352966 30.0073967,1.30385442 29.9842712,1.28072884 C29.9611456,1.25760326 29.9297034,1.24473082 29.897,1.245 C29.8646432,1.24526413 29.8337168,1.25837168 29.8110247,1.28143889 C29.7883325,1.3045061 29.7757337,1.33564326 29.776,1.36799793 C29.7757337,1.40035674 29.7883325,1.4314939 29.8110247,1.45456111 C29.8337168,1.47762832 29.8646432,1.49073587 29.897,1.491 M24.678,6.198 C24.478,6.49 24.924,6.883 24.924,6.883 C24.9795222,6.99476851 25.0286025,7.10962296 25.071,7.227 C25.12,7.374 25.462,7.276 25.462,7.276 L25.904,7.276 C26.147,7.126 26.346,7.03 26.346,7.03 L26.446,6.83 L26.788,6.781 C26.788,6.781 27.427,7.027 27.083,7.223 C26.739,7.419 26.69,7.518 26.837,7.565 C26.9645213,7.59913124 27.0959903,7.61627936 27.228,7.61600336 L27.574,7.174 L27.674,6.585 C27.674,6.585 27.82,6.146 27.62,6.198 C27.5678501,6.21187618 27.5123057,6.20408934 27.4659818,6.17640797 C27.4196579,6.1487266 27.386486,6.10350012 27.374,6.051 L27.62,5.805 L28.256,5.905 L28.551,5.758 C28.551,5.758 28.14,5.55 28.011,5.466 C27.8888639,5.35468381 27.7887862,5.22135995 27.716,5.073 L27.716,4.584 L27.816,4.044 L27.521,4.144 L27.278,4.291 C27.1819154,4.16374187 27.1302707,4.0084564 27.131,3.849 L26.984,3.603 L27.084,3.21 C26.8279961,3.13992088 26.563396,3.10625675 26.298,3.11 L26.055,3.061 C26.055,3.061 25.613,3.452 26.298,3.894 C26.598,4.086 25.711,3.845 25.563,3.747 C25.415,3.649 25.268,3.894 25.123,3.847 C24.978,3.8 24.828,4.142 24.828,4.142 L24.975,4.584 C24.975,4.584 24.926,5.267 25.075,5.267 C25.175141,5.26945722 25.274442,5.2859513 25.37,5.316 L25.27,5.401 L24.975,5.662 L25.611,5.662 L25.711,6.004 L25.76,6.299 L25.465,6.399 C25.4070749,6.25507125 25.3034143,6.13419244 25.17,6.055 L24.681,5.809 L24.435,6.009 C24.435,6.009 24.877,5.909 24.681,6.209 M26.641,2.384 C26.641,2.384 26.985,2.335 26.985,2.484 C26.985,2.633 27.28,2.684 27.28,2.684 L27.427,2.731 C27.5644351,2.81194533 27.6424524,2.96524933 27.627,3.124 C27.578,3.367 27.527,3.367 27.578,3.515 L27.678,3.81 L27.973,4.056 L28.173,3.614 C28.273,3.467 28.468,3.565 28.468,3.565 C28.468,3.565 28.76,3.665 28.615,3.811 C28.47,3.957 28.615,3.911 28.468,4.155 C28.321,4.399 28.515,4.398 28.515,4.398 C28.6782222,4.42502589 28.8447778,4.42502589 29.008,4.398 C29.1353848,4.33771115 29.2511538,4.25545428 29.35,4.155 C29.35,4.155 29.497,4.008 29.301,3.955 C29.105,3.902 29.154,3.663 28.957,3.564 C28.8332787,3.49721837 28.7317816,3.39572134 28.665,3.272 C28.665,3.072 28.665,3.024 28.81,3.024 L28.957,3.024 C29.252,3.024 29.301,2.781 29.448,2.83 C29.595,2.879 29.595,2.781 29.743,2.73 C29.891,2.679 29.943,2.239 29.943,2.239 L29.843,2.045 L29.597,2.145 L29.302,2.094 L28.86,2.487 L28.713,2.587 L28.421,2.587 C28.274,2.587 28.175,2.387 28.175,2.387 C28.028,2.24 27.929,2.387 27.929,2.387 L27.572,2.134 L27.521,1.984 L27.471,1.634 L27.52,0.995 L27.471,1.241 C27.179,1.536 26.982,1.634 26.835,1.585 C26.688,1.536 26.688,1.88 26.491,1.785 C26.294,1.69 26.199,1.539 26.248,1.832 C26.3142377,2.0506805 26.4519144,2.24082231 26.639,2.372 M55.12,66.596 C54.4230707,65.7770441 53.5943543,65.0801383 52.668,64.534 C52.4888808,64.4276999 52.2897068,64.3596062 52.083,64.334 C51.837,64.334 51.101,64.234 51.101,64.234 C51.101,64.234 50.907,64.087 50.759,64.134 C50.611,64.181 50.27,64.334 50.27,64.334 L49.877,64.285 C49.877,64.285 48.845,64.138 48.651,64.138 C48.4865169,64.1325333 48.3225333,64.1168363 48.16,64.091 L47.718,64.238 L47.475,64.383 L47.18,64.683 C47.18,64.683 47.327,64.83 47.229,64.975 C47.1496218,65.1079944 47.1146004,65.2627889 47.129,65.417 C47.1146295,65.5514617 47.0809497,65.6831494 47.029,65.808 C46.829,66.008 46.783,66.103 46.638,66.054 C46.4613618,65.9590623 46.2965538,65.843596 46.147,65.71 L45.754,65.565 L45.508,65.27 C45.508,65.27 44.872,64.926 44.577,65.024 C44.577,65.024 45.95,63.309 46.441,62.818 C46.932,62.327 46.733,60.661 45.459,59.681 C44.185,58.701 43.259,57.866 43.259,57.866 L42.522,57.377 C42.2745324,57.3953536 42.0284109,57.4287486 41.785,57.477 C41.5688964,57.4795109 41.3539058,57.4457073 41.149,57.377 L40.758,57.326 L40.22,57.326 C40.42,57.326 40.859,57.181 41.004,57.181 C41.149,57.181 41.544,57.132 41.544,57.132 L41.691,57.181 L41.885,57.181 L42.285,57.132 L42.52,57.132 L43.06,57.279 L43.549,57.473 L43.893,57.673 L44.04,57.919 L44.283,58.019 C44.283,58.019 44.529,57.528 44.922,57.724 C45.315,57.92 45.022,57.577 45.022,57.577 C45.022,57.577 43.207,55.715 43.16,54.59 C43.113,53.465 42.914,53.413 43.01,53.264 C43.1039258,53.1561454 43.2226708,53.0727493 43.356,53.021 L43.845,53.021 L43.894,52.874 C43.894,52.874 43.747,52.235 43.452,52.285 C43.2665911,52.3099004 43.0780778,52.2748608 42.914,52.185 L42.62,52.185 L42.42,52.085 L42.125,51.739 L41.931,51.447 L41.538,51.103 L41.338,50.663 C41.338,50.663 41.438,50.123 41.238,50.123 C41.038,50.123 40.955,49.834 40.955,49.834 L40.855,49.49 C40.5858294,49.3908487 40.3227103,49.2759846 40.067,49.146 C39.9325417,49.1087645 39.8016862,49.0595682 39.676,48.999 L38.649,48.461 C38.4567935,48.5179291 38.2522065,48.5179291 38.06,48.461 C37.8438252,48.4084184 37.6313621,48.3416061 37.424,48.261 C37.224,48.161 36.736,47.819 36.736,47.819 C36.7385856,47.6215499 36.7221768,47.4243086 36.687,47.23 C36.448955,46.3143091 36.1543904,45.4142506 35.805,44.535 C35.463,43.85 35.021,43.061 35.021,43.061 L34.921,42.329 L34.968,41.74 L34.921,41.104 C34.921,41.104 35.021,40.369 34.87,40.369 C34.719,40.369 34.624,39.733 34.624,39.733 L34.477,39.144 C34.477,39.144 34.526,38.653 34.377,38.606 C34.228,38.559 34.62,38.014 34.082,37.967 C33.544,37.92 33.542,37.918 33.347,37.82 C33.152,37.722 33.003,37.329 33.003,37.329 C33.003,37.329 32.803,36.985 32.659,37.037 C32.515,37.089 32.459,37.037 32.315,36.937 C32.171,36.837 32.072,36.595 31.826,36.546 C31.58,36.497 31.626,36.251 31.433,36.106 C31.24,35.961 30.895,35.517 30.698,35.465 C30.501,35.413 30.305,35.365 30.305,35.365 L29.276,34.874 C29.03,34.674 28.736,34.481 28.736,34.481 L28.591,34.139 C28.5208234,34.2311442 28.4118232,34.2854596 28.296,34.286 C28.0636356,34.3138525 27.8343326,34.3630606 27.611,34.433 C27.476099,34.4048478 27.3357011,34.4213445 27.211,34.48 C27.0955168,34.577934 26.9968747,34.6941425 26.919,34.824 C26.919,34.824 26.87,34.824 26.772,35.024 L26.672,35.224 C26.672,35.224 26.772,35.568 26.33,35.371 C25.888,35.174 25.839,34.98 25.691,34.929 C25.543,34.878 25.491,34.587 25.349,34.637 C25.1486799,34.6492551 24.9502309,34.6827769 24.757,34.737 C24.5798541,34.8401936 24.3713217,34.8757187 24.17,34.837 C23.976,34.79 23.73,34.493 23.386,34.545 C23.042,34.597 22.897,34.494 22.799,34.299 C22.7118871,34.0761111 22.644952,33.8458543 22.599,33.611 L22.452,33.466 L23.58,34.151 L23.78,34.397 L24.367,34.348 L24.809,34.299 L25.298,34.299 L25.74,34.053 L25.986,33.81 L26.379,33.417 L26.524,33.125 L27.113,32.683 L27.408,32.533 C27.408,32.533 27.555,32.781 27.7,32.781 C27.9655849,32.8145347 28.2353363,32.7801277 28.484,32.681 C28.6892169,32.5458922 28.8859222,32.3982797 29.073,32.239 C29.073,32.239 29.122,31.996 28.973,31.944 C28.824,31.892 28.629,31.404 28.629,31.404 L28.285,31.259 L28.138,31.259 L28.089,30.964 L27.942,30.669 L27.942,30.325 L27.748,29.983 C27.6395357,30.0786634 27.4996202,30.1309983 27.355,30.13 C27.1621452,30.150854 26.9770342,30.2173568 26.815,30.324 L26.275,30.668 C26.1364054,30.6449157 25.9944938,30.6812103 25.884,30.768 L25.684,30.915 L25.342,30.964 C25.342,30.964 25.142,30.817 25.487,30.669 C25.832,30.521 26.371,30.278 26.371,30.278 L26.663,30.131 L26.909,29.885 L27.253,29.785 L27.644,29.64 L27.988,29.64 C27.988,29.64 27.988,29.493 28.283,29.54 C28.447269,29.5721722 28.6173805,29.5551262 28.772,29.491 C28.772,29.491 28.919,29.54 29.067,29.297 C29.215,29.054 29.116,28.953 29.313,28.804 C29.51,28.655 29.608,28.561 29.608,28.366 C29.5937052,28.18299 29.5601872,28.0019929 29.508,27.826 C29.508,27.826 29.559,27.384 29.708,27.286 C29.857,27.188 30.05,27.086 30.05,27.086 C30.05,27.086 30.59,27.332 30.934,25.371 C31.278,23.41 31.521,24.096 31.914,22.919 C32.307,21.742 33.189,20.959 33.189,20.619 C33.189,20.279 33.089,19.344 33.089,19.344 L33.04,18.413 L32.451,17.971 L31.962,17.971 C31.8324167,17.9437541 31.6985833,17.9437541 31.569,17.971 C31.3625546,18.0497646 31.1651034,18.150334 30.98,18.271 L30.393,17.971 L29.238,17.971 L28.747,18.02 L28.501,18.12 L28.012,17.926 L27.277,17.877 L26.835,17.877 L26.199,18.077 C25.953,18.277 25.167,18.026 25.167,18.026 L24.924,17.826 L24.187,17.877 C24.187,17.877 23.796,17.73 23.747,17.877 C23.698,18.024 23.6,18.27 23.6,18.27 L23.649,18.464 L22.72,18.404 C22.72,18.404 21.887,19.19 21.445,19.19 C21.1674679,19.2085011 20.9222868,19.3773268 20.806,19.63 L20.563,19.922 L20.363,20.122 L20.263,20.269 L20.063,19.731 C20.063,19.731 20.112,19.531 20.263,19.485 C20.380377,19.4426025 20.4952315,19.3935222 20.607,19.338 L20.902,19.092 L21.244,18.603 C21.0905577,18.4159047 20.8409068,18.3373982 20.608,18.403 C20.3874034,18.4937646 20.1577785,18.5608084 19.923,18.603 C19.8042126,18.6329139 19.6997639,18.7037266 19.628,18.803 C19.284,19.049 19.186,18.852 19.186,18.852 L19.97,18.213 L20.265,18.013 L20.609,17.913 L20.951,17.813 L21.246,17.96 L21.446,17.96 L21.692,17.813 C21.8191498,17.7122843 21.9345446,17.5975604 22.036,17.471 C22.1200361,17.3329502 22.1852784,17.1843055 22.23,17.029 C22.279,16.882 22.574,16.685 22.574,16.685 C22.674,16.54 22.674,16.343 22.525,16.442 C22.3191809,16.5522681 22.1067807,16.6497852 21.889,16.734 L21.349,16.734 C21.349,16.734 21.449,16.491 21.103,16.491 L20.22,16.491 L19.928,16.54 L19.633,16.393 C19.9205504,16.3168343 20.2176966,16.2831442 20.515,16.293 C20.7004229,16.3184734 20.889115,16.2834005 21.053,16.193 L21.397,16.193 L21.544,16.144 L21.544,15.805 L21.344,15.365 L22.177,15.021 L22.766,14.481 L23.402,14.09 L23.844,13.599 L24.431,12.914 L24.631,12.668 L25.169,12.228 L25.316,12.128 C25.4005199,12.0429383 25.5006924,11.9750248 25.611,11.928 C25.758,11.879 25.857,11.928 26.004,11.728 C26.2006568,11.5050919 26.336074,11.2349466 26.397,10.944 C26.427569,10.7159031 26.4439339,10.4861269 26.446,10.256 L26.296,9.863 C26.296,9.863 25.709,9.863 25.856,9.816 C26.003,9.769 26.689,9.03 26.64,8.688 C26.546,8.034 25.34,8.603 24.686,8.646 C24.686,8.994 24.486,8.938 24.286,8.965 C24.105,8.99 23.77,9.059 23.686,8.844 C23.293,8.644 23.041,9.027 22.786,9.25 C22.386,9.603 22.013,9.362 21.591,9.513 C21.397,8.937 20.417,9.546 20.079,9.676 C19.8201299,9.74838427 19.5727121,9.85677681 19.344,9.998 C19.132,10.165 19.007,10.424 18.793,10.592 C18.909,10.067 19.501,9.424 18.541,9.409 C17.96,9.398 17.941,10.099 17.525,10.452 C17.804,10.144 18.063,9.575 17.748,9.235 C17.614,9.21 17.507,9.19 17.371,9.168 C17.695,8.643 16.261,8.628 16.063,8.833 C15.889,9.014 15.994,9.487 15.916,9.717 C15.78,10.123 15.653,9.994 15.311,10.017 C15.539,10.394 15.885,10.428 16.133,10.731 C15.988,10.898 15.794,10.8 15.608,10.898 C15.637,10.938 15.659,11.032 15.695,11.074 C14.78,11.295 15.833,11.545 15.561,12.101 C15.724,12.411 16.215,12.356 16.476,12.568 C16.4434364,12.6275058 16.3945058,12.6764364 16.335,12.709 C15.9276021,12.3576075 15.4015071,12.1748512 14.864,12.198 C14.109,12.198 14.449,12.651 14.547,13.06 C14.590697,13.2653052 14.5793119,13.4785157 14.514,13.678 C14.398,14.002 14.214,13.908 14.056,14.111 C13.784,14.47 14.436,14.89 14.57,15.281 C14.6815699,15.1935873 14.8359935,15.1855861 14.956,15.261 C14.914,15.627 15.298,16.103 15.51,16.361 C15.18,16.218 15.255,15.807 14.883,15.745 C14.439,15.674 14.62,16.015 14.722,16.267 C14.555,16.053 14.522,15.91 14.275,15.845 C13.98,15.765 14.045,15.903 13.82,15.972 C13.481,16.072 12.94,16.146 13.143,15.604 C12.886,15.49 12.714,15.664 12.533,15.852 C12.602,15.939 12.598,16.042 12.654,16.124 C12.471,16.191 12.303,16.309 12.118,16.251 C12.035,16.43 11.881,16.329 11.767,16.494 C11.626,16.699 11.751,16.818 11.774,17.012 C11.812,17.318 11.805,17.912 12.261,17.812 C12.33,18.078 12.085,18.078 11.884,18.055 C11.8476272,18.2645403 11.8445897,18.4785117 11.875,18.689 C11.958,18.915 12.243,18.948 12.275,19.22 C12.603,19.064 12.775,19.396 13.092,19.379 C12.951,19.879 12.292,19.464 12.009,19.346 C11.341,19.071 11.382,19.484 11.366,20.069 C11.359,20.361 11.25,21.127 11.509,21.315 C11.891,21.59 12.282,20.949 12.601,20.853 C12.6043865,21.0136308 12.6261958,21.1733423 12.666,21.329 C13.017398,21.2954395 13.3352255,21.1060642 13.532,20.813 C13.6141407,21.0965732 13.4573095,21.3943315 13.177,21.487 C12.9651878,21.6389715 12.7282217,21.7523767 12.477,21.822 C12.598,21.853 12.736,21.951 12.852,21.969 C12.99,21.989 13.205,21.891 13.319,21.922 C13.719,22.029 13.437,22.255 13.489,22.549 C13.189,22.58 13.165,22.402 12.915,22.509 C12.7661553,22.6078262 12.6315679,22.7265995 12.515,22.862 C12.4762168,22.9660593 12.4601901,23.0772232 12.468,23.188 C12.624468,23.2353347 12.73871,23.3699212 12.76,23.532 C12.883,23.581 12.894,23.632 12.981,23.732 C12.608,23.777 12.313,23.451 12.025,23.495 C11.712,23.546 11.616,24.042 11.482,24.27 C11.5418265,24.2803116 11.6023144,24.286327 11.663,24.288 C11.784,24.444 11.938,24.588 11.826,24.802 C11.902,24.739 12.026,24.724 12.105,24.675 C12.2209584,24.8565703 12.4552817,24.9213004 12.648,24.825 C12.659,25.097 12.177,25.104 11.998,25.033 C11.866,24.977 11.798,24.781 11.656,24.743 C11.514,24.705 11.433,24.814 11.305,24.821 C11.026,24.834 10.756,24.743 10.651,25.1 C10.568,25.379 10.772,25.611 10.946,25.792 C11.207,25.846 11.646,25.736 11.779,25.935 C11.8501331,26.0730732 11.8450348,26.2380683 11.7655128,26.3714863 C11.6859908,26.5049043 11.5432881,26.5878821 11.388,26.591 C11.341,26.665 11.288,26.718 11.238,26.791 C11.245,26.827 11.271,26.827 11.276,26.862 C11.097,27.083 10.885,26.962 10.64,26.976 C10.3563052,27.018412 10.0764257,27.0832825 9.803,27.17 C9.439,27.241 8.816,27.114 8.785,27.612 C9.323,28.132 10.83,27.902 10.79,27.907 C10.79,27.907 10.839,28.199 10.69,28.199 C10.5393878,28.2156824 10.3911254,28.2492259 10.248,28.299 C10.1464312,28.2134521 10.0297588,28.1476543 9.904,28.105 C9.71485891,28.0408101 9.51672597,28.0070567 9.317,28.005 C9.15120154,28.0482212 8.99910756,28.1328708 8.875,28.251 C8.77503539,28.4116209 8.72395987,28.5978554 8.728,28.787 C8.728,28.987 8.528,29.524 8.679,29.573 C8.83,29.622 9.318,29.966 9.514,29.868 C9.71,29.77 10.101,29.721 9.954,29.917 C9.84914498,30.098531 9.66942607,30.224444 9.463,30.261 C9.22,30.308 9.22,30.701 9.416,30.652 C9.5850669,30.6401534 9.75415691,30.6747322 9.905,30.752 C9.905,30.752 9.954,30.998 9.61,31.096 C9.266,31.194 8.63,30.801 8.436,30.85 C8.242,30.899 8.141,30.95 8.19,31.243 C8.239,31.536 8.29,31.634 8.436,31.683 C8.582,31.732 8.483,32.027 8.876,31.883 C9.269,31.739 9.76,31.539 9.76,31.539 C9.9730906,31.5105579 10.1897809,31.5272526 10.396,31.588 C10.543,31.688 10.887,31.588 11.081,31.443 C11.208295,31.3416982 11.3236982,31.226295 11.425,31.099 C11.425,31.099 11.816,30.999 11.914,30.853 C12.012,30.707 12.307,30.61 12.307,30.411 L12.307,29.971 L12.407,29.824 L12.751,29.624 L13.093,29.477 L13.093,28.841 C13.1976584,28.6432297 13.3299911,28.4613985 13.486,28.301 C13.7,28.089 15.864,25.669 16.659,24.74 C16,25.533 14.328,27.576 14.565,27.616 C14.9087777,27.6326929 15.2533641,27.616284 15.594,27.567 C15.594,27.567 15.645,27.862 15.299,27.862 C14.8848151,27.9094781 14.4753669,27.9917692 14.075,28.108 C14.0999618,28.3028706 14.0999618,28.5001294 14.075,28.695 C14.0435093,28.8168786 13.9928799,28.9329888 13.925,29.039 C13.925,29.039 13.633,28.839 13.682,29.039 C13.731,29.239 13.436,29.088 13.731,29.239 C13.9303199,29.3283494 14.1498782,29.3628711 14.367,29.339 L13.731,29.732 C13.731,29.732 13.387,29.532 13.387,29.732 C13.387,29.932 13.287,30.174 13.487,30.125 C14.2007253,30.2172259 14.8930594,29.8410187 15.204,29.192 C15.204,29.192 15.496,30.273 14.027,30.371 C12.558,30.469 12.752,31.056 12.752,31.056 L12.852,31.449 L12.606,31.744 C12.4390193,31.8404972 12.3163083,31.9983711 12.264,32.184 L12.364,32.624 L12.315,32.824 C12.2310459,32.828223 12.1481646,32.8447319 12.069,32.873 C11.922,32.922 12.511,33.315 12.511,33.315 L12.658,33.561 C12.658,33.561 12.758,33.761 12.607,33.807 C12.5043519,33.8437966 12.4063543,33.8924599 12.315,33.952 L11.922,34.541 C11.9440904,34.6795504 11.9078967,34.8210678 11.822,34.932 C11.6965466,35.1382113 11.6604426,35.3866069 11.722,35.62 C11.7551248,35.797406 11.77153,35.9775288 11.771,36.158 C11.9605045,36.2936105 12.1263895,36.4594955 12.262,36.649 C12.4931559,36.6255753 12.7138099,36.5406286 12.901,36.403 C12.0601843,37.430601 11.5668761,38.6983573 11.492,40.024 L11.05,40.759 C11.05,40.759 10.905,41.201 11.099,41.297 C11.2249424,41.3593597 11.3565362,41.4095863 11.492,41.447 L11.885,41.693 L12.227,41.593 C12.427,41.35 12.571,41.153 12.571,41.153 L12.52,40.709 L12.52,39.734 L12.569,39.243 C12.569,39.243 12.716,38.752 12.769,38.607 C12.822,38.462 12.916,38.165 12.916,38.165 L13.159,37.428 L13.405,36.937 L13.651,36.743 C13.6200153,36.5438636 13.5349188,36.3570664 13.405,36.203 L13.605,35.861 L13.405,35.272 L13.258,34.636 L13.209,34.436 L13.455,34.289 L13.897,34.289 C13.9877548,34.1689077 14.0852445,34.0540568 14.189,33.945 C14.3901124,33.7213821 14.6034381,33.5090578 14.828,33.309 C14.975,33.209 15.464,32.771 15.464,32.771 L15.71,32.427 L16.152,32.132 C16.152,32.132 14.533,34.092 14.288,34.483 C14.1247343,34.7619722 13.9935663,35.0585261 13.897,35.367 L14.14,35.907 L14.435,36.007 L14.635,35.715 L14.586,35.273 C14.686,35.126 14.786,35.467 14.786,35.467 L15.029,35.911 C15.029,35.911 15.129,36.111 15.229,36.302 C15.329,36.493 15.472,36.791 15.472,36.791 L15.572,36.938 L15.772,36.695 L15.821,35.96 C15.7189659,35.8802678 15.635102,35.7796993 15.575,35.665 L15.675,35.518 L15.918,35.272 L16.063,35.072 L16.112,34.632 L16.259,34.337 C16.259,34.337 16.159,34.137 16.406,33.846 C16.5668525,33.5979758 16.6523053,33.3086171 16.652,33.013 C16.752,32.866 16.947,33.406 16.947,33.406 L16.996,34.042 L17.242,34.337 L17.436,34.632 L17.636,34.924 L17.783,35.124 L18.078,35.271 L18.225,35.371 L18.425,35.518 C18.225,35.718 17.347,35.318 17.347,35.318 L17.147,35.218 L17.047,34.923 L16.312,35.07 L16.261,35.61 C16.2111329,35.8516092 16.1953129,36.099007 16.214,36.345 C16.2392731,36.573637 16.2392731,36.804363 16.214,37.033 L16.359,37.375 L16.312,37.67 L16.506,37.965 L16.752,38.358 C16.752,38.358 16.652,38.307 17.047,38.7 C17.442,39.093 17.585,39.044 17.536,39.24 C17.487,39.436 17.585,39.387 17.489,39.631 L17.389,39.877 L17.047,40.71 L16.605,41.054 L16.359,41.349 C16.2160972,41.5359963 16.085489,41.7320756 15.968,41.936 C15.868,42.136 15.722,42.476 15.722,42.476 L15.968,42.719 L15.182,43.308 C15.1242308,43.4141059 15.0901162,43.5314601 15.082,43.652 C15.033,43.944 14.982,44.436 14.982,44.436 L14.491,44.78 L14.54,45.318 L14.74,45.905 L14.94,46.249 L15.235,46.595 L15.38,47.035 C15.5171196,47.2631562 15.6183043,47.5110586 15.68,47.77 L15.825,48.065 L15.972,48.36 L16.172,48.016 L15.926,47.328 L15.66,47.034 L15.56,46.543 L15.66,46.297 C15.7563309,46.1806952 15.8720327,46.0819088 16.002,46.005 L16.344,45.956 L16.737,46.005 C16.876563,46.1437876 17.0077923,46.290711 17.13,46.445 C17.277,46.645 17.277,46.936 17.422,47.034 C17.567,47.132 18.601,47.378 18.601,47.525 C18.605947,47.6403433 18.6223612,47.7549079 18.65,47.867 L18.992,48.067 C18.992,48.067 19.238,47.578 19.192,47.428 C19.1591625,47.3002699 19.1426971,47.1688832 19.143,47.037 L19.043,46.644 L18.943,46.3 L18.743,46.008 L18.696,45.861 L18.942,45.812 C18.942,45.812 19.333,45.812 19.382,46.058 C19.431,46.304 19.871,46.301 19.871,46.301 L20.166,46.501 L20.51,46.701 L20.802,46.947 L21.002,46.947 L21.346,46.8 L21.786,46.554 L21.986,46.308 L22.086,46.016 C22.28,45.967 22.624,45.916 22.624,45.916 C22.797757,45.9171193 22.9679392,45.8666563 23.113,45.771 L23.408,45.571 L23.555,45.522 L23.555,44.787 L23.85,44.738 C24.0283308,44.7120812 24.207921,44.6957245 24.388,44.689 C24.6353019,44.7089109 24.8813339,44.7422938 25.125,44.789 C25.2632452,44.8728251 25.4109432,44.9399605 25.565,44.989 C25.7266696,45.0213563 25.8911245,45.0377683 26.056,45.038 L26.351,45.038 C26.251,45.232 25.663,45.478 25.663,45.478 L25.223,45.628 L24.83,45.871 L24.779,46.114 L24.634,46.507 L24.292,46.9 L23.997,47.047 L23.797,47.438 C23.797,47.438 23.502,47.782 23.502,47.931 C23.4994867,48.0294998 23.4829885,48.1271426 23.453,48.221 L23.109,49.253 L23.209,49.548 L23.651,50.086 L24.044,50.528 L24.189,50.82 L24.24,51.115 C24.24,51.115 24.532,51.066 24.385,51.315 C24.238,51.564 24.585,51.804 24.585,51.804 L24.685,52.05 L24.685,52.296 L24.785,52.542 L24.885,52.834 L25.177,52.64 C25.177,52.64 25.237,52.524 25.284,52.419 C25.2624525,52.6550679 25.2594433,52.8924617 25.275,53.129 C25.3060353,53.3293853 25.3552381,53.5265312 25.422,53.718 L25.471,54.109 C25.671,54.158 26.107,53.909 26.107,53.909 L26.207,53.422 L26.156,53.122 L26.256,52.78 L26.303,52.58 C26.3549774,52.5398956 26.4007975,52.4923909 26.439,52.439 L26.647,52.776 L26.991,52.576 L27.529,52.625 L27.873,52.281 L27.922,52.232 C27.922,52.232 28.217,51.89 28.168,52.032 C28.119,52.174 27.922,53.356 27.922,53.356 L27.873,53.798 C27.63,53.998 27.726,54.044 27.581,54.14 L27.434,54.24 L27.287,54.535 C27.287,54.535 27.195,54.624 27.336,54.735 C27.53,54.882 26.599,55.03 26.55,55.175 L26.309,55.805 C26.357762,55.9177392 26.3913874,56.0364366 26.409,56.158 C26.4810316,56.5773182 26.7850188,56.9193038 27.193,57.04 C27.586,57.14 26.8,57.826 26.8,57.826 L26.6,58.217 C26.6,58.217 26.649,58.657 26.5,58.755 C26.351,58.853 26.257,59.44 26.257,59.44 C26.3925932,59.6288492 26.5577058,59.7946371 26.746,59.931 L26.946,60.471 C27.0310617,60.5555199 27.0989752,60.6556924 27.146,60.766 C27.195,60.911 27.979,61.108 27.979,61.208 C27.979,61.308 28.517,60.96 28.517,60.96 C28.517,60.96 28.417,62.235 27.048,61.107 C25.679,59.979 26.115,59.734 25.92,60.029 C25.7931589,60.2276448 25.6939165,60.4426138 25.625,60.668 C25.625,60.668 25.674,60.619 25.625,60.862 C25.576,61.105 25.281,60.962 25.625,61.353 C25.969,61.744 26.067,61.697 26.114,61.893 C26.1365171,62.0118228 26.0772746,62.1311251 25.969,62.185 C25.969,62.185 25.625,61.352 25.478,61.401 C25.331,61.45 24.891,61.106 24.891,61.106 L24.547,61.006 L24.255,61.053 L23.813,61.203 L23.373,61.25 L23.125,61.45 C22.851532,61.5091861 22.5706457,61.5263832 22.292,61.501 C22.292,61.501 22.192,61.253 22.049,61.253 C21.906,61.253 22.049,61.253 21.656,61.106 C21.263,60.959 21.263,60.814 21.263,60.814 L21.163,61.696 C21.114,61.896 19.839,61.896 19.839,61.896 C19.839,61.896 20.77,61.257 20.281,61.211 C19.9696135,61.1722134 19.669457,61.0701194 19.399,60.911 L19.35,60.668 L19.301,60.275 L19.154,60.275 L18.859,60.375 C18.714,60.375 18.616,60.228 18.419,60.129 C18.3075921,60.0727001 18.1926898,60.0235994 18.075,59.982 L17.731,60.082 C17.6926413,60.0550871 17.6449191,60.0450942 17.5989855,60.0543566 C17.5530518,60.0636189 17.5129315,60.0913249 17.488,60.131 L17.388,60.278 L17.388,60.671 C17.388,60.671 17.535,60.865 17.341,60.963 L17.141,61.063 C16.995313,61.031851 16.844687,61.031851 16.699,61.063 C16.8422961,61.2313472 17.0066436,61.3805707 17.188,61.507 C17.188,61.507 17.63,61.507 17.532,61.75 L17.432,61.996 L17.832,62.239 C17.832,62.239 18.515,62.139 18.272,62.485 C18.029,62.831 18.419,62.78 18.419,62.78 L18.859,62.98 C19.059,63.08 18.81,63.373 18.81,63.373 L18.71,63.616 C18.5805864,63.6532589 18.4624061,63.7219683 18.366,63.816 C18.2623301,63.9321193 18.1791461,64.0650108 18.12,64.209 L17.874,64.602 C17.874,64.602 17.727,64.894 17.579,64.944 C17.431,64.994 16.992,65.19 16.992,65.19 L16.792,65.19 C16.6350662,65.2509682 16.5109682,65.3750662 16.45,65.532 L16.35,65.732 L16.055,66.027 L16.255,66.127 C16.4210294,66.2265988 16.6041486,66.2944208 16.795,66.327 C16.995,66.327 16.795,66.127 16.995,66.327 C17.1100361,66.4425291 17.2813301,66.4814596 17.435,66.427 L17.835,66.083 L18.177,65.739 L18.423,65.594 L18.718,65.201 L19.45,65.201 L19.843,65.101 C19.843,65.101 20.138,65.101 20.187,65.248 C20.236,65.395 20.381,65.737 20.381,65.737 L20.02,66.055 C20.122342,66.2076586 20.2049959,66.3726304 20.266,66.546 C20.3432642,66.7515632 20.4421527,66.9483346 20.561,67.133 C20.561,67.133 20.804,67.28 20.661,67.428 C20.518,67.576 20.561,67.772 20.317,67.72 C20.317,67.72 20.217,67.771 20.217,67.966 C20.2428728,68.1834814 20.2914717,68.3976517 20.362,68.605 C20.362,68.605 20.706,68.805 20.662,68.947 C20.6332922,69.0432381 20.6332922,69.1457619 20.662,69.242 C20.4518868,69.4926909 20.255275,69.7543949 20.073,70.026 C20.073,70.026 20.417,70.026 20.122,70.326 C19.827,70.626 20.022,70.373 19.928,70.815 C19.834,71.257 19.778,71.353 19.633,71.5 C19.4380607,71.6145731 19.2194749,71.682988 18.994,71.7 L18.552,71.7 L18.112,71.995 L17.719,72.189 L17.519,72.484 L16.686,72.73 C16.5757868,72.8290984 16.4405804,72.8961829 16.295,72.924 C16.047,72.978 15.558,73.024 15.558,73.024 C15.4500047,73.102428 15.3935932,73.2336711 15.411,73.366 C15.4400111,73.4785004 15.4564451,73.5938735 15.46,73.71 C15.2405378,73.8727791 14.9905833,73.9897646 14.725,74.054 C14.4591398,74.0285426 14.1960909,73.9793464 13.939,73.907 C13.939,73.907 13.988,73.762 13.792,73.858 C13.596,73.954 13.647,74.104 13.549,74.251 C13.451,74.398 13.402,74.595 13.156,74.642 C12.91,74.689 12.32,74.834 12.32,74.834 C12.32,74.834 12.074,74.883 12.271,75.126 C12.468,75.369 12.613,75.666 12.858,75.619 C13.0533931,75.5918264 13.2516069,75.5918264 13.447,75.619 C13.447,75.619 13.84,75.469 13.936,75.719 C14.032,75.969 13.594,76.259 13.594,76.259 L13.201,76.551 C13.201,76.551 12.857,76.895 13.348,76.991 L13.839,77.091 L14.328,77.238 C14.328,77.238 14.672,76.845 14.868,76.845 C15.064,76.845 15.455,77.091 15.261,77.285 C15.1547578,77.3927513 15.0396901,77.4914285 14.917,77.58 C14.917,77.58 14.573,77.872 15.017,77.774 C15.3634393,77.6752834 15.6940819,77.5278074 15.999,77.336 C15.999,77.336 16.341,77.136 16.537,77.236 C16.733,77.336 16.93,77.336 17.028,77.185 C17.1261104,76.9964816 17.2083933,76.80014 17.274,76.598 C17.274,76.598 17.074,76.256 17.323,76.256 C17.572,76.256 17.763,76.499 18.008,76.448 C18.253,76.397 18.89,77.037 18.89,77.037 L19.676,77.428 L20.214,77.578 L19.772,78.018 L19.283,78.118 L18.941,78.167 C18.941,78.167 18.646,78.56 18.841,78.56 C19.0121099,78.579393 19.1783843,78.6291738 19.332,78.707 L19.821,78.807 L20.165,78.707 L20.509,78.607 C20.5812057,78.5312371 20.6461561,78.4488774 20.703,78.361 C20.8302775,78.231103 20.9754002,78.1199881 21.134,78.031 C21.127,78.067 21.534,78.067 21.534,78.067 L21.777,78.267 C21.9056815,78.3402315 21.9961865,78.4657706 22.025,78.611 C22.074,78.857 22.416,78.857 22.416,79.051 C22.4418723,79.2135881 22.5109459,79.3662408 22.616,79.493 L23.009,79.788 L23.301,79.888 L23.694,80.088 L24.183,80.235 L24.527,80.335 L25.56,80.335 L25.707,80.135 L25.607,79.597 L25.853,79.253 L26.293,78.961 L26.735,78.91 L27.275,78.618 L27.619,78.274 L28.108,78.227 L28.452,78.274 L28.652,78.028 C28.652,78.028 28.996,77.635 29.092,77.49 C29.2406252,77.3267699 29.4050996,77.1787094 29.583,77.048 L30.17,76.608 L30.465,76.362 L29.387,77.686 L28.996,78.226 L28.603,78.862 L28.503,79.204 L28.309,79.45 L27.965,79.597 L27.67,79.744 C27.5701837,79.7837935 27.4852472,79.8537001 27.427,79.944 C27.327,80.091 27.132,80.482 27.132,80.482 L26.985,80.777 L26.69,81.266 L26.837,81.466 L26.637,81.859 C26.537,82.006 25.902,82.053 25.902,82.053 L25.656,82.104 L25.165,82.104 C25.165,82.104 24.971,81.904 24.823,82.004 C24.5852619,82.0863348 24.3372096,82.1351375 24.086,82.149 L23.597,82.004 L23.155,81.857 C22.9992404,81.7936839 22.8515417,81.7121139 22.715,81.614 C22.5824548,81.5847637 22.4439129,81.6013323 22.322,81.661 C22.1489104,81.7244856 21.966345,81.758294 21.782,81.761 C21.6015585,81.7589642 21.4213552,81.7747069 21.244,81.808 C21.097,81.857 20.802,81.708 20.657,81.761 C20.4461427,81.8068211 20.2327749,81.840212 20.018,81.861 L19.48,82.055 L19.234,82.155 L18.792,82.355 L18.743,82.748 L18.989,83.186 C18.988101,83.3231802 18.9537769,83.4580737 18.889,83.579 C18.8284791,83.6729312 18.7791443,83.7736143 18.742,83.879 L18.4,84.024 C18.4,84.024 18.3,83.824 18.154,83.879 C18.0528131,83.9024937 17.9464263,83.8841014 17.859,83.828 L17.468,83.828 L17.026,83.928 L16.926,84.616 L16.926,84.934 L16.877,85.229 C16.9045467,85.3413359 16.9045467,85.4586641 16.877,85.571 C16.828,85.718 16.877,85.718 16.777,85.863 L16.677,86.01 L16.333,86.256 C16.333,86.256 16.433,86.256 16.233,86.456 C16.0157332,86.6489929 15.7869814,86.8286549 15.548,86.994 L15.401,87.24 C15.42871,87.3249326 15.4101388,87.4181674 15.352,87.486 C15.1568287,87.6573398 14.9209864,87.7757775 14.667,87.83 C14.467,87.877 14.031,87.83 13.93,87.977 C13.8557397,88.1320167 13.8061422,88.2976791 13.783,88.468 L13.491,89.593 L13.206,89.834 L12.863,89.834 C12.669,89.834 12.325,90.327 12.325,90.327 C12.325,90.327 12.472,90.474 12.374,90.62 C12.3092231,90.7409263 12.274899,90.8758198 12.274,91.013 C12.0926598,90.9863296 11.9075777,91.0031241 11.734,91.062 C11.5460235,91.1584647 11.3796468,91.2921785 11.245,91.455 L10.803,91.555 C10.7138449,91.4985726 10.6001551,91.4985726 10.511,91.555 C10.3702,91.6336334 10.2221906,91.6985968 10.069,91.749 L9.92,92.134 C9.92,92.134 9.775,91.987 9.625,92.183 C9.53953992,92.3499167 9.52198067,92.5434268 9.576,92.723 C9.576,92.723 9.376,93.163 9.676,93.163 L10.12,93.163 C10.12,93.163 10.32,93.013 10.464,92.92 C10.589975,92.8178949 10.7046312,92.7025682 10.806,92.576 L11.15,92.429 L11.737,92.724 C11.737,92.724 12.13,92.824 12.13,92.967 C12.13,93.11 12.376,93.409 12.425,93.556 C12.474,93.703 12.619,93.75 12.619,93.947 C12.6167112,94.0007123 12.6370466,94.0529238 12.6750614,94.0909386 C12.7130762,94.1289534 12.7652877,94.1492888 12.819,94.1471743 L13.212,94.047 L13.458,93.603 L13.8,93.311 L13.606,92.92 L13.506,92.72 C13.506,92.72 13.162,92.327 13.306,92.374 C13.5221983,92.3778486 13.7374147,92.3440095 13.942,92.274 C13.942,92.274 14.777,92.127 14.728,91.979 C14.679,91.831 15.02,91.635 15.02,91.635 L15.315,91.34 C15.364,91.195 15.515,90.849 15.515,90.849 C15.66449,90.7615732 15.8329979,90.7118102 16.006,90.704 L16.448,90.704 L16.986,90.604 L17.426,90.555 L17.966,90.312 L18.504,90.263 L18.848,90.063 L19.192,89.768 L19.392,89.621 C19.2629816,89.7517493 19.1910608,89.9283148 19.192,90.112 L19.339,90.505 L19.585,90.552 L19.877,90.798 L20.27,90.845 L20.565,90.798 C20.5917423,90.9055488 20.6411818,91.0061326 20.71,91.093 C20.9452081,91.1935074 21.1932502,91.2608187 21.447,91.293 L21.987,91.539 C21.987,91.539 21.987,91.785 22.132,91.785 C22.2671465,91.7708467 22.3995251,91.7371626 22.525,91.685 L22.725,91.485 L22.825,90.8 L22.925,90.458 L23.267,90.358 L23.562,90.258 L23.611,89.767 C23.516073,89.6348977 23.4481114,89.4853821 23.411,89.327 L23.706,89.079 C23.7733924,88.8550045 23.8225527,88.6259239 23.853,88.394 L23.853,87.954 L24,87.754 L23.951,87.314 L24.538,87.705 L25.22,87.234 L25.611,86.89 C25.8050948,86.8446095 26.0018003,86.8112129 26.2,86.79 C26.347,86.79 26.738,86.739 26.738,86.739 L26.984,86.79 L27.279,86.79 L27.77,86.59 C27.7429218,86.7094092 27.8035016,86.8314045 27.915,86.882 C28.115,86.982 28.797,87.275 28.797,87.275 L29.632,87.715 C29.632,87.715 30.514,87.715 30.317,87.815 C30.12,87.915 30.217,88.304 30.217,88.304 L30.266,88.55 C30.266,88.55 30.855,87.764 31.101,87.715 C31.3937908,87.6816521 31.6883233,87.665957 31.983,87.668 C31.983,87.668 32.325,87.619 32.374,87.768 C32.423,87.917 32.574,87.968 32.718,88.063 C32.9072258,88.1246006 33.1081799,88.1413753 33.305,88.112 C33.305,88.112 33.796,87.574 33.551,87.523 C33.306,87.472 33.551,86.938 33.256,87.083 C32.961,87.228 32.865,86.84 32.865,86.84 C32.865,86.84 33.698,86.545 33.649,86.74 C33.6,86.935 34.189,86.986 34.189,86.986 L34.678,86.886 L35.317,86.839 L35.612,86.694 L35.806,86.594 L36.052,86.594 C36.052,86.594 36.445,86.694 36.298,86.794 C36.151,86.894 36.198,87.185 36.198,87.185 L36.345,87.385 L36.934,87.68 L37.177,87.78 L37.52,87.78 L37.864,87.731 C38.058,87.878 38.206,87.78 38.255,87.586 C38.3730597,87.3395807 38.520824,87.108531 38.695,86.898 L38.795,86.706 L38.601,86.406 L38.355,86.306 L38.06,86.257 C37.9157142,86.3543101 37.7450089,86.4049283 37.571,86.402 C37.276,86.453 37.031,86.502 37.031,86.502 C36.884,86.551 36.884,86.355 36.884,86.355 C36.737,86.306 36.984,86.011 36.984,86.011 C37.131,85.864 37.084,85.375 37.084,85.375 L37.231,85.175 L37.431,85.275 L37.723,85.717 L38.067,85.817 C38.14113,85.9243036 38.2431235,86.0093558 38.362,86.063 L38.802,85.963 C38.8612217,86.0095098 38.9292591,86.0435285 39.002,86.063 C39.2128582,86.1088166 39.4262257,86.1422074 39.641,86.163 L39.688,86.016 C39.688,86.016 39.739,85.822 39.888,85.967 C40.0833997,86.1088683 40.2965476,86.2245195 40.522,86.311 L40.77,86.262 L41.065,86.115 L41.456,85.968 L41.798,85.868 C41.798,85.868 44.839,85.234 46.36,85.968 C47.881,86.702 47.387,85.868 47.387,85.868 L47.787,85.477 L48.079,85.477 L48.423,85.33 L48.715,85.23 C48.8247014,85.0925176 48.9577277,84.9754003 49.108,84.884 C49.255,84.837 49.845,84.638 49.845,84.638 L50.236,84.346 L50.436,84.051 C50.436,84.051 51.023,83.805 51.171,83.951 L51.318,84.094 L51.807,83.114 L52.007,82.822 C52.007,82.822 52.007,82.773 52.157,82.722 C52.3111019,82.6520219 52.4589688,82.5690559 52.599,82.474 L53.02,82.334 C53.0921778,82.2823252 53.1753572,82.248095 53.263,82.234 C53.4495254,82.1834778 53.6080124,82.0602901 53.703,81.892 C53.85,81.692 53.903,81.692 53.949,81.499 C53.995,81.306 53.998,81.699 53.998,81.108 C53.998,80.517 53.798,80.516 53.798,80.516 C53.798,80.516 53.698,80.516 53.698,80.371 C53.7259056,80.2023888 53.7753081,80.0380497 53.845,79.882 L54.091,79.587 C54.091,79.587 54.386,79.145 54.091,79.194 C53.8727798,79.2389788 53.659688,79.3059888 53.455,79.394 C53.2392964,79.4068612 53.0253199,79.4403473 52.816,79.494 C52.5732154,79.5419726 52.3277762,79.5753656 52.081,79.594 C51.8589707,79.6659952 51.6263379,79.6998082 51.393,79.694 C51.246,79.645 51.147,79.494 50.953,79.694 C50.8370878,79.8094338 50.6653128,79.848297 50.511,79.794 C50.511,79.794 50.658,79.843 50.611,79.647 C50.5441497,79.480926 50.4437184,79.3304494 50.316,79.205 C50.2499474,79.1456729 50.1568823,79.1269067 50.073,79.156 C49.923,79.205 49.923,79.156 49.778,79.205 C49.6495737,79.2377519 49.5175367,79.2542145 49.385,79.254 L49.285,79.401 L49.285,78.961 C49.285,78.961 49.585,78.421 49.285,78.568 C49.1181048,78.654558 48.9347218,78.7046645 48.747,78.715 C48.643043,78.6546269 48.5196797,78.6370547 48.403,78.666 L48.203,78.715 L49.085,78.126 L49.672,78.226 L50.264,78.076 L50.655,77.976 C50.655,77.976 50.455,77.73 50.606,77.73 C50.757,77.73 50.606,77.63 50.706,77.386 C50.806,77.142 51.193,76.993 51.048,76.897 C50.903,76.801 50.848,76.261 50.848,76.261 L50.064,76.453 L49.622,76.453 L49.622,76.261 L50.261,75.721 L50.652,75.328 L50.799,75.181 L51.091,75.23 L51.386,75.377 L51.828,75.524 L52.415,75.377 L52.82,74.434 L52.82,74.092 C52.6950227,73.9624808 52.5445122,73.8603244 52.378,73.792 C52.184,73.747 52.184,73.45 52.184,73.45 L52.231,73.108 L52.378,73.059 L52.918,73.206 L53.458,73.306 L53.898,73.063 L54.242,72.817 L54.389,72.522 L54.438,72.23 L54.538,71.493 L54.738,71.102 C54.738,71.102 56.308,67.963 55.131,66.592 M15.131,38.892 C15.031,38.745 14.931,38.6 14.931,38.6 C14.890765,38.4893336 14.8740757,38.3714866 14.882,38.254 C14.877053,38.1386567 14.8606388,38.0240921 14.833,37.912 L14.686,37.712 L14.486,37.512 L14.046,37.659 L13.798,37.61 L13.456,38.052 L13.456,38.688 L13.505,39.079 L13.605,39.523 L13.9,39.815 C13.9596985,39.9334009 14.0651831,40.0222681 14.192,40.061 L14.634,40.012 C14.7866505,39.9130814 14.9179066,39.7845457 15.02,39.634 L14.973,39.243 L15.219,39.093 C15.219,39.093 15.219,39.046 15.119,38.899 M10.364,34.679 L10.511,34.826 L10.711,34.826 C10.954,34.826 11.396,34.288 11.396,34.288 L11.642,33.75 L11.787,33.502 L11.836,33.158 L11.686,33.158 L10.804,33.698 L10.413,34.091 L10.167,34.191 L10.02,34.434 C10.02,34.434 9.873,34.677 10.02,34.677 L10.364,34.679 Z M8.058,35.416 L7.766,35.516 L7.52,36.005 L7.473,36.498 L7.473,36.788 L7.323,36.988 L7.423,37.288 L7.57,37.141 C7.70111295,37.0583524 7.81768057,36.9546241 7.915,36.834 C8.009,36.687 7.915,36.687 8.158,36.634 L8.352,36.683 C8.35368433,36.7740757 8.41257956,36.8542053 8.499,36.883 L8.499,37.519 L8.008,38.354 L8.254,38.548 C8.37510895,38.5166557 8.49099634,38.4678078 8.598,38.403 C8.69310105,38.3140416 8.74644298,38.1892142 8.745,38.059 L9.037,37.813 L9.285,37.764 C9.39353332,37.7910815 9.50785437,37.7519305 9.577,37.664 C9.677,37.517 9.777,37.564 9.921,37.418 C10.065,37.272 9.921,37.218 10.021,37.076 C10.121,36.934 9.972,36.876 9.821,36.732 C9.67,36.588 9.821,36.532 9.821,36.532 L10.116,36.286 L10.362,36.186 L10.657,35.746 L10.851,35.5 L11.195,34.911 C10.753,35.206 10.51,34.962 10.51,34.962 C10.3486136,35.0189801 10.1706719,35.0051805 10.02,34.924 L9.578,34.924 L9.335,35.071 C9.21531496,35.1835672 9.08350843,35.282506 8.942,35.366 L8.742,35.661 L8.158,35.661 L8.058,35.416 Z M7.32,28.505 L7.664,28.161 L7.764,27.915 L7.864,27.62 L7.728,27.72 L7.228,28.064 L6.884,28.164 L6.592,28.309 L6.541,28.702 L7.032,28.602 L7.32,28.505 Z M5.753,28.896 L5.311,29.043 L5.065,29.092 L5.212,29.384 L5.261,29.684 L5.461,29.584 L5.805,29.535 L6.048,29.388 L6.148,29.188 L6.342,29.088 L6.242,28.941 L5.996,28.892 L5.753,28.896 Z M7.912,29.436 L7.664,29.775 L7.517,29.826 L7.37,29.973 L7.517,30.173 L7.861,30.073 L8.006,29.973 L8.156,29.629 C8.156,29.629 8.256,29.287 7.913,29.435 M8.694,34.09 L9.185,34.237 L9.431,34.037 C9.431,34.037 10.067,33.595 9.625,33.745 C9.183,33.895 9.576,33.361 9.576,33.205 C9.576,33.005 9.476,32.765 9.333,32.812 C9.19,32.859 8.94,33.205 8.94,33.205 C8.94,33.205 8.793,33.405 8.891,33.549 L8.744,33.94 L8.694,34.09 Z M1.22,18.601 C1.34127813,18.601005 1.43990246,18.5032732 1.441,18.382 C1.44100492,18.2596173 1.34237774,18.1600976 1.22,18.159 C1.09762226,18.1600976 0.998995078,18.2596173 0.999,18.382 C1.00009754,18.5032732 1.09872187,18.601005 1.22,18.601" id="Path_28"></path>
                </g>
                <g id="Group_5" transform="translate(79.874000, 26.607000)">
                    <path d="M7.437,12.707 L19.507,12.707 L19.507,4.718 C19.507,2.295 18.953,1.574 16.107,1.489 L16.107,0 L26.943,0 L26.943,1.491 C24.096,1.576 23.543,2.297 23.543,4.72 L23.543,24.562 C23.543,26.985 24.094,27.708 26.943,27.793 L26.943,29.28 L16.107,29.28 L16.107,27.791 C18.954,27.706 19.507,26.983 19.507,24.56 L19.507,14.832 L7.437,14.832 L7.437,24.562 C7.437,26.985 7.988,27.708 10.837,27.793 L10.837,29.28 L0,29.28 L0,27.791 C2.847,27.706 3.4,26.983 3.4,24.56 L3.4,4.718 C3.4,2.295 2.846,1.574 0,1.489 L0,0 L10.838,0 L10.838,1.491 C7.989,1.576 7.438,2.297 7.438,4.72 L7.437,12.707 Z" id="Path_29"></path>
                </g>
                <g id="Group_6" transform="translate(108.071000, 34.341000)">
                    <path d="M17.404,17.679 L18.297,19.124 C16.1712507,20.9091039 13.5065207,21.9267385 10.732,22.013 C4.654,22.013 0.999,17.934 0.999,10.965 C0.999,4.037 4.909,-8.8817842e-16 10.135,-8.8817842e-16 C15.491,-8.8817842e-16 18.635,3.7 18.635,10.157 L18.635,11.304 L5.081,11.304 C5.164,17.466 7.289,19.462 11.752,19.462 C13.7593622,19.3713509 15.7079939,18.7566286 17.404,17.679 M5.124,9.223 L14.6,9.223 C14.6,4.036 13.283,2.04 10.052,2.04 C7.163,2.04 5.421,3.784 5.124,9.223" id="Path_30"></path>
                </g>
                <g id="Group_7" transform="translate(130.024000, 34.342000)">
                    <path d="M12.579,-6.5305119e-05 C13.0129785,-0.00254224691 13.4441952,0.0691580874 13.854,0.212 L12.919,4.419 C12.4995412,4.25743607 12.0509706,4.18522881 11.602,4.207 C8.119,4.207 6.971,5.567 6.971,9.688 L6.971,17.125 C6.971,19.548 7.395,19.974 10.581,20.101 L10.581,21.546 L0.127,21.546 L0.127,20.1 C2.55,19.93 3.103,19.546 3.103,17.124 L3.103,6.714 C3.103,3.614 2.503,3.186 0.003,3.101 L0.003,1.826 L5.434,0.127 L6.078,0.127 C6.59588462,1.68839196 6.84047259,3.32743585 6.801,4.972 C8.458,2.041 10.284,-6.5305119e-05 12.579,-6.5305119e-05" id="Path_31"></path>
                </g>
                <g id="Group_8" transform="translate(146.345000, 25.844000)">
                    <path d="M9.945,28.599 L9.945,30.044 L0.127,30.044 L0.127,28.599 C2.55,28.429 3.103,28.045 3.103,25.625 L3.103,15.209 C3.103,12.109 2.503,11.683 0.003,11.596 L0.003,10.326 L6.335,8.626 L6.974,8.626 L6.974,25.626 C6.974,28.046 7.274,28.473 9.948,28.6 M4.76,5.35400369 C4.05347844,5.35518216 3.37617032,5.07215566 2.88054897,4.56863446 C2.38492762,4.06511327 2.11264628,3.38341454 2.125,2.677 C2.11264628,1.97058546 2.38492762,1.28888673 2.88054897,0.785365536 C3.37617032,0.281844342 4.05347844,-0.00118216277 4.76,-3.68846795e-06 C5.46652156,-0.00118216277 6.14382968,0.281844342 6.63945103,0.785365536 C7.13507238,1.28888673 7.40735372,1.97058546 7.395,2.677 C7.40735372,3.38341454 7.13507238,4.06511327 6.63945103,4.56863446 C6.14382968,5.07215566 5.46652156,5.35518216 4.76,5.35400369" id="Path_32"></path>
                </g>
                <g id="Group_9" transform="translate(158.331000, 28.647000)">
                    <path d="M10.92,8.712 L6.42,8.712 L6.42,21.546 C6.42,24.862 7.014,25.627 9.139,25.627 C9.96331852,25.6159768 10.7804691,25.4721313 11.559,25.201 L11.901,26.73 C10.6092259,27.4373958 9.1636623,27.8171567 7.691,27.836 C4.505,27.836 2.549,26.349 2.549,22.1 L2.549,8.712 L0,8.712 L0,7.352 L2.847,6.374 C3.17677479,4.32049358 3.85306569,2.3379468 4.847,0.511 L6.847,2.22044605e-15 C6.59334611,2.11520847 6.46578732,4.24363699 6.465,6.374 L11.514,6.374 L10.92,8.712 Z" id="Path_33"></path>
                </g>
                <g id="Group_10" transform="translate(172.356000, 34.384000)">
                    <path d="M19.463,19.889 L19.463,21.289 C18.5182812,21.6059986 17.527454,21.7638145 16.531,21.756 C13.512,21.756 12.876,20.524 12.662,18.74 C11.4679061,20.8313676 9.24921866,22.1272854 6.841,22.14 C2.762,22.14 1.77635684e-15,19.974 1.77635684e-15,16.065 C1.77635684e-15,10.965 4.461,9.224 11.132,9.224 C11.643,9.224 12.068,9.224 12.619,9.264 L12.619,7.395 C12.619,3.742 11.771,2.126 8.754,2.126 C5.184,2.126 4.163,3.995 3.824,5.951 L1.148,5.951 L1.148,2.168 C3.59942146,0.855706923 6.31578936,0.114568537 9.094,3.55271368e-15 C13.854,3.55271368e-15 16.489,2.168 16.489,7.14 C16.489,8.415 16.317,12.07 16.317,15.94 C16.317,19.126 16.701,19.68 19.463,19.892 M11.048,11.22 C6.203,11.22 4.117,12.537 4.117,15.765 C4.117,18.784 5.307,19.719 7.772,19.719 C9.75746782,19.5823319 11.5212312,18.4021751 12.405,16.619 L12.535,11.308 C11.941,11.266 11.602,11.223 11.048,11.223" id="Path_34"></path>
                </g>
                <g id="Group_11" transform="translate(193.605000, 34.256000)">
                    <path d="M16.913,3.528 C15.8744652,3.47965787 14.8592187,3.20382761 13.939,2.72 C15.4545548,3.7334813 16.400461,5.40495318 16.489,7.226 C16.489,10.158 14.489,13.726 7.607,13.726 C6.078,14.15 5.015,15.001 5.015,15.936 C5.015,16.572 5.524,16.997 6.544,16.997 L10.454,16.997 C15.426,16.997 18.273,18.359 18.273,22.862 C18.273,27.026 14.194,29.662 8.925,29.662 C3.062,29.662 0.001,27.369 0.001,24.777 C0.110561436,23.4577339 0.946856917,22.3097563 2.169,21.801 L3.953,21.716 C3.64237906,22.411216 3.48318992,23.1645522 3.486,23.926 C3.486,26.306 4.761,27.626 8.84,27.626 C13.301,27.626 14.79,25.969 14.79,23.676 C14.79,21.084 13.727,20.53 8.159,20.403 C6.672,20.361 5.185,20.233 4.377,20.148 C2.71733202,19.959833 1.50000688,18.4983377 1.615,16.832 C1.615,15.175 3.272,13.943 5.567,13.177 C2.66589212,12.6133443 0.555926166,10.0949844 0.509,7.14 C0.509,3.018 3.609,0.172 8.5,0.172 C9.62228192,0.148145513 10.741042,0.305845768 11.813,0.639 C12.8390829,1.00950719 13.9110134,1.23795691 14.999,1.318 C16.2594657,1.26481105 17.4682191,0.802093364 18.442,2.22044605e-16 L19.887,2.764 C18.9717091,3.2545818 17.9514122,3.51668901 16.913,3.528 M8.415,2.168 C5.905,2.168 4.548,3.613 4.548,6.968 C4.548,10.239 5.948,11.768 8.458,11.768 C11.008,11.768 12.323,10.323 12.323,7.095 C12.323,3.695 11.093,2.165 8.416,2.165" id="Path_35"></path>
                </g>
                <g id="Group_12" transform="translate(214.492000, 34.341000)">
                    <path d="M17.404,17.679 L18.297,19.124 C16.1712507,20.9091039 13.5065207,21.9267385 10.732,22.013 C4.654,22.013 0.999,17.934 0.999,10.965 C0.999,4.037 4.909,-8.8817842e-16 10.135,-8.8817842e-16 C15.489,-8.8817842e-16 18.635,3.7 18.635,10.157 L18.635,11.304 L5.081,11.304 C5.166,17.466 7.289,19.462 11.75,19.462 C13.7580477,19.3716968 15.707412,18.7569609 17.404,17.679 M5.124,9.223 L14.6,9.223 C14.6,4.036 13.283,2.04 10.052,2.04 C7.163,2.04 5.421,3.784 5.124,9.223" id="Path_36"></path>
                </g>
                <g id="Group_13" transform="translate(80.123000, 59.630000)">
                    <path d="M2.085,8.457 C2.085,12.217 3.045,14.608 6.191,14.608 C7.01619296,14.6550326 7.83430938,14.4325162 8.522,13.974 L8.522,10.64 C8.522,9.475 8.256,9.128 6.682,9.088 L6.682,8.375 L11.791,8.375 L11.791,9.092 C10.728,9.132 10.463,9.478 10.463,10.644 L10.463,14.507 C9.10324906,15.2196358 7.58591678,15.5783342 6.051,15.55 C2.311,15.55 1.66533454e-15,12.893 1.66533454e-15,8.356 C1.66533454e-15,3.756 2.494,1.001 6.051,1.001 C7.56630526,0.903880545 9.07568037,1.26597723 10.382,2.04 L10.382,4.309 L8.951,4.309 C8.645,2.755 8.071,1.96 5.886,1.96 C3.066,1.96 2.086,4.717 2.086,8.46" id="Path_37"></path>
                </g>
                <g id="Group_14" transform="translate(92.913000, 64.593000)">
                    <path d="M6.049,-3.18847326e-05 C6.25781741,-0.00122005864 6.46536144,0.0325819 6.663,0.1 L6.209,2.126 C6.00749093,2.04941243 5.79231014,2.01536484 5.577,2.026 C3.903,2.023 3.351,2.677 3.351,4.66 L3.351,8.234 C3.351,9.399 3.551,9.605 5.088,9.665 L5.088,10.359 L0.06,10.359 L0.06,9.666 C1.225,9.583 1.491,9.4 1.491,8.235 L1.491,3.229 C1.491,1.738 1.205,1.534 0,1.492 L0,0.88 L2.615,0.063 L2.923,0.063 C3.17132943,0.813333699 3.28837855,1.60087809 3.269,2.391 C4.066,0.98 4.946,-3.18847326e-05 6.049,-3.18847326e-05" id="Path_38"></path>
                </g>
                <g id="Group_15" transform="translate(100.349000, 63.593000)">
                    <path d="M7.888,9.5 L8.317,10.194 C7.29567936,11.0536291 6.01429856,11.5437035 4.68,11.585 C1.757,11.585 -4.4408921e-16,9.622 -4.4408921e-16,6.271 C-4.4408921e-16,2.94 1.88,0.999 4.394,0.999 C6.968,0.999 8.482,2.776 8.482,5.882 L8.482,6.433 L1.963,6.433 C2.003,9.397 3.025,10.36 5.171,10.36 C6.13628058,10.3158149 7.07310135,10.0192871 7.888,9.5 M1.983,5.434 L6.54,5.434 C6.54,2.94 5.906,1.98 4.354,1.98 C2.963,1.98 2.126,2.817 1.983,5.434" id="Path_39"></path>
                </g>
                <g id="Group_16" transform="translate(110.216000, 64.613000)">
                    <path d="M9.36,9.563 L9.36,10.237 C8.90551863,10.3903214 8.42863221,10.4667044 7.949,10.463 C6.5,10.463 6.192,9.869 6.092,9.011 C5.51704658,10.0163541 4.45012959,10.6393574 3.292,10.646 C1.329,10.646 0.000999650662,9.606 0.000999650662,7.726 C9.34582273e-17,5.272 2.146,4.434 5.354,4.434 C5.6,4.434 5.805,4.434 6.068,4.454 L6.068,3.554 C6.068,1.795 5.659,1.02 4.21,1.02 C3.64856569,0.930434221 3.0751132,1.0774622 2.62603398,1.42611442 C2.17695476,1.77476665 1.89238228,2.29388463 1.84,2.86 L0.554,2.86 L0.554,1.043 C1.73232712,0.41156174 3.03828097,0.0549884762 4.374,-8.8817842e-16 C6.663,-8.8817842e-16 7.929,1.043 7.929,3.434 C7.929,4.046 7.849,5.803 7.849,7.663 C7.849,9.197 8.032,9.463 9.361,9.563 M5.314,5.397 C2.985,5.397 1.983,6.029 1.983,7.581 C1.983,9.032 2.555,9.481 3.74,9.481 C4.69459454,9.4136473 5.5422187,8.84602825 5.968,7.989 L6.028,5.437 C5.742,5.415 5.579,5.397 5.314,5.397" id="Path_40"></path>
                </g>
                <g id="Group_17" transform="translate(120.085000, 61.855000)">
                    <path d="M5.252,4.189 L3.086,4.189 L3.086,10.36 C3.086,11.954 3.372,12.32 4.394,12.32 C4.78990127,12.3163289 5.18261602,12.2487942 5.557,12.12 L5.722,12.855 C5.10075539,13.1957444 4.40548669,13.3790893 3.697,13.389 C2.165,13.389 1.225,12.672 1.225,10.629 L1.225,4.189 L0,4.189 L0,3.534 L1.369,3.063 C1.52830639,2.07669503 1.85286036,1.12433197 2.329,0.246 L3.289,0 C3.16858059,1.01658086 3.10747711,2.03931289 3.106,3.063 L5.537,3.063 L5.252,4.189 Z" id="Path_41"></path>
                </g>
                <g id="Group_18" transform="translate(131.443000, 59.874000)">
                    <path d="M10.259,4.474 C10.259,5.945 9.605,7.028 7.685,7.519 L7.685,7.599 C9.58163355,7.7123466 11.0414416,9.31817986 10.974,11.217 C10.974,13.936 8.685,15.08 6.049,15.08 L0,15.08 L0,14.366 C1.371,14.326 1.637,13.978 1.637,12.812 L1.637,3.268 C1.637,2.103 1.371,1.756 0,1.716 L0,0.999 L5.151,0.999 C8.788,0.999 10.26,2.225 10.26,4.473 M5.595,2.003 L3.577,2.003 L3.577,7.256 L5.682,7.256 C7.663,7.256 8.295,6.397 8.295,4.7 C8.295,2.717 7.581,2 5.595,2 M5.825,8.234 L3.577,8.234 L3.577,14.079 L6.177,14.079 C8.363,14.079 8.934,13.159 8.934,11.094 C8.934,9.011 8.28,8.234 5.828,8.234" id="Path_42"></path>
                </g>
                <g id="Group_19" transform="translate(143.621000, 64.593000)">
                    <path d="M6.049,-3.40390268e-05 C6.25716742,-0.00126141443 6.4640608,0.0325446926 6.661,0.1 L6.209,2.126 C6.00683008,2.0492794 5.79096939,2.01523197 5.575,2.026 C3.903,2.023 3.349,2.677 3.349,4.66 L3.349,8.234 C3.349,9.4 3.555,9.605 5.088,9.666 L5.088,10.36 L0.06,10.36 L0.06,9.666 C1.225,9.583 1.491,9.4 1.491,8.235 L1.491,3.229 C1.491,1.738 1.205,1.534 0,1.492 L0,0.88 L2.615,0.063 L2.92,0.063 C3.1707874,0.812809867 3.28889,1.60061178 3.269,2.391 C4.066,0.98 4.946,-3.40390268e-05 6.049,-3.40390268e-05" id="Path_43"></path>
                </g>
                <g id="Group_20" transform="translate(151.059000, 60.506000)">
                    <path d="M4.78,13.754 L4.78,14.448 L0.06,14.448 L0.06,13.754 C1.224,13.671 1.491,13.488 1.491,12.323 L1.491,7.317 C1.491,5.825 1.203,5.62 0,5.58 L0,4.966 L3.041,4.148 L3.347,4.148 L3.347,12.323 C3.347,13.488 3.49,13.692 4.778,13.754 M2.289,2.57700407 C1.94869274,2.5778626 1.6223678,2.44168327 1.38362218,2.19917491 C1.14487656,1.95666655 1.01381637,1.62825217 1.02,1.288 C1.01381235,0.947839144 1.14490331,0.619524734 1.38367898,0.377174011 C1.62245465,0.134823288 1.94878475,-0.00113205853 2.289,-7.01350914e-06 C2.62878034,-0.000598892248 2.95449351,0.135624969 3.19267643,0.377946929 C3.43085935,0.620268888 3.56145206,0.9482804 3.555,1.288 C3.56117308,1.62773127 3.43052148,1.95568376 3.19242806,2.19810273 C2.95433463,2.44052171 2.62878734,2.57705608 2.289,2.57700407" id="Path_44"></path>
                </g>
                <g id="Group_21" transform="translate(156.512000, 61.855000)">
                    <path d="M5.252,4.189 L3.086,4.189 L3.086,10.36 C3.086,11.954 3.372,12.32 4.392,12.32 C4.78856853,12.3164915 5.18196739,12.2489552 5.557,12.12 L5.722,12.855 C5.10064933,13.1954786 4.40544789,13.3788058 3.697,13.389 C2.165,13.389 1.225,12.672 1.225,10.629 L1.225,4.189 L0,4.189 L0,3.534 L1.369,3.063 C1.52830639,2.07669503 1.85286036,1.12433197 2.329,0.246 L3.289,0 C3.16858059,1.01658086 3.10747711,2.03931289 3.106,3.063 L5.537,3.063 L5.252,4.189 Z" id="Path_45"></path>
                </g>
                <g id="Group_22" transform="translate(162.847000, 64.613000)">
                    <path d="M9.357,9.563 L9.357,10.237 C8.90317185,10.3901745 8.4269674,10.4665565 7.948,10.463 C6.497,10.463 6.191,9.869 6.091,9.011 C5.51650056,10.0168039 4.4492982,10.6399738 3.291,10.646 C1.328,10.646 0.00199860129,9.606 0.00199860129,7.726 C-4.42788167e-16,5.272 2.143,4.434 5.354,4.434 C5.597,4.434 5.803,4.434 6.068,4.454 L6.068,3.554 C6.068,1.795 5.659,1.02 4.208,1.02 C3.64656569,0.930434221 3.0731132,1.0774622 2.62403398,1.42611442 C2.17495476,1.77476665 1.89038228,2.29388463 1.838,2.86 L0.551,2.86 L0.551,1.043 C1.72962835,0.411416456 3.03594039,0.0548387389 4.372,-1.77635684e-15 C6.661,-1.77635684e-15 7.929,1.043 7.929,3.434 C7.929,4.046 7.846,5.803 7.846,7.663 C7.846,9.197 8.029,9.463 9.358,9.563 M5.312,5.397 C2.983,5.397 1.981,6.029 1.981,7.581 C1.981,9.032 2.553,9.481 3.74,9.481 C4.69386108,9.41296114 5.54057471,8.84544239 5.966,7.989 L6.029,5.437 C5.741,5.415 5.578,5.397 5.312,5.397" id="Path_46"></path>
                </g>
                <g id="Group_23" transform="translate(173.103000, 60.506000)">
                    <path d="M4.78,13.754 L4.78,14.448 L0.06,14.448 L0.06,13.754 C1.224,13.671 1.491,13.488 1.491,12.323 L1.491,7.317 C1.491,5.825 1.203,5.62 0,5.58 L0,4.966 L3.041,4.148 L3.347,4.148 L3.347,12.323 C3.347,13.488 3.49,13.692 4.778,13.754 M2.289,2.57700407 C1.94869274,2.5778626 1.6223678,2.44168327 1.38362218,2.19917491 C1.14487656,1.95666655 1.01381637,1.62825217 1.02,1.288 C1.01381235,0.947839144 1.14490331,0.619524734 1.38367898,0.377174011 C1.62245465,0.134823288 1.94878475,-0.00113205853 2.289,-7.01350914e-06 C2.62878034,-0.000598892248 2.95449351,0.135624969 3.19267643,0.377946929 C3.43085935,0.620268888 3.56145206,0.9482804 3.555,1.288 C3.56117308,1.62773127 3.43052148,1.95568376 3.19242806,2.19810273 C2.95433463,2.44052171 2.62878734,2.57705608 2.289,2.57700407" id="Path_47"></path>
                </g>
                <g id="Group_24" transform="translate(177.946000, 64.654000)">
                    <path d="M11.849,9.602 L11.849,10.302 L7.232,10.302 L7.232,9.602 C8.52,9.543 8.659,9.319 8.659,8.317 L8.659,3.126 C8.659,1.926 8.15,1.451 7.168,1.451 C6.08635696,1.45376566 5.05864666,1.92369066 4.349,2.74 L4.349,8.317 C4.349,9.317 4.492,9.543 5.78,9.605 L5.78,10.302 L1.059,10.302 L1.059,9.602 C2.222,9.519 2.49,9.336 2.49,8.171 L2.49,3.168 C2.49,1.677 2.202,1.468 0.999,1.431 L0.999,0.817 L3.615,0.002 L3.921,0.002 C4.13275154,0.571498879 4.25029163,1.17169638 4.269,1.779 C5.11916746,0.710562368 6.39442781,0.0678165358 7.759,0.02 C8.50570082,-0.0469664244 9.24382516,0.219488395 9.77557837,0.747962748 C10.3073316,1.2764371 10.5783467,2.01289927 10.516,2.76 L10.516,8.174 C10.516,9.339 10.762,9.523 11.844,9.605" id="Path_48"></path>
                </g>
            </g>
        </g>
    </g>
</svg>