<?xml version="1.0" encoding="UTF-8"?>
<svg width="192px" height="91px" viewBox="0 0 192 91" version="1.1" xmlns="http://www.w3.org/2000/svg" xmlns:xlink="http://www.w3.org/1999/xlink">
    <!-- Generator: Sketch 59.1 (86144) - https://sketch.com -->
    <title>royal-liver-building</title>
    <desc>Created with Sketch.</desc>
    <g id="Page-1" stroke="none" stroke-width="1" fill="none" fill-rule="evenodd">
        <g id="royal-liver-building" transform="translate(0.000000, -1.000000)" fill="#FFFFFF" fill-rule="nonzero">
            <path d="M8.517,9.138 C9.08414215,8.79119475 9.56060271,8.31439142 9.907,7.747 C10.2874654,7.11753343 10.4797104,6.39227681 10.461,5.657 C10.5653149,4.34007971 9.95728546,3.0679479 8.867,2.322 C7.73359596,1.60894967 6.41459165,1.24710201 5.076,1.282 L-5.68434189e-14,1.282 L-5.68434189e-14,14.504 L3.19,14.504 L3.19,10.073 L5.241,10.073 C5.34828996,10.0733112 5.45549589,10.0669657 5.562,10.054 C5.95133333,10.7933333 6.34,11.5356667 6.728,12.281 C7.116,13.0263333 7.51166667,13.7683333 7.915,14.507 L11.532,14.507 C11.026,13.625 10.5236667,12.7336667 10.025,11.833 C9.52633333,10.9323333 9.02366667,10.034 8.517,9.138 Z M6.543,7.047 C6.10532552,7.37870667 5.56567209,7.54739258 5.017,7.524 L3.189,7.524 L3.189,3.848 L4.977,3.848 C5.54045846,3.81552413 6.09853517,3.97291232 6.562,4.295 C6.96579672,4.64325185 7.178756,5.16357122 7.135,5.695 C7.16493389,6.21413717 6.94537855,6.71640251 6.544,7.047 L6.543,7.047 Z" id="Path_140"></path>
            <path d="M31.566,1 C29.8072824,0.928215513 28.1090922,1.64903798 26.939,2.964 C25.773792,4.3628516 25.1703577,6.14499648 25.246,7.964 C25.1971455,9.70924851 25.7575691,11.4170377 26.831,12.794 C28.0016462,14.174899 29.7601615,14.9154438 31.566,14.788 C33.336429,14.8843909 35.0542131,14.1683407 36.232,12.843 C37.386367,11.4334301 37.9815339,9.64828539 37.904,7.828 C37.9526851,6.08232662 37.3926934,4.37406916 36.32,2.996 C35.1431357,1.61221777 33.3779736,0.871102171 31.566,1 Z M33.792,11.052 C33.2673504,11.7592526 32.4257479,12.1598193 31.546,12.121 C30.6173544,12.1894039 29.7288008,11.7312193 29.246,10.935 C28.7418314,10.0199956 28.4963818,8.98495852 28.536,7.941 C28.4826031,6.84838089 28.7751438,5.76674994 29.372,4.85 C29.868708,4.10432353 30.712249,3.66444482 31.608,3.684 C32.5272126,3.61627232 33.4077155,4.06577596 33.892,4.85 C34.3974886,5.75760583 34.6431441,6.78693729 34.602,7.825 C34.6829619,8.95951529 34.3991505,10.0902058 33.792,11.052 L33.792,11.052 Z" id="Path_141"></path>
            <polygon id="Path_142" points="55.778 14.504 58.967 14.504 58.967 9.373 63.556 1.284 60.25 1.284 57.35 6.3 54.608 1.284 51.303 1.633 55.775 9.313"></polygon>
            <path d="M81.478,1.283 L76.462,14.504 L79.631,14.504 L80.642,11.723 L85.367,11.723 L86.398,14.504 L89.548,14.154 L84.548,1.283 L81.478,1.283 Z M81.535,9.195 L82.955,5.249 L84.432,9.195 L81.535,9.195 Z" id="Path_143"></path>
            <polygon id="Path_144" points="112.972 11.996 107.295 11.996 107.295 1.283 104.106 1.283 104.106 14.504 113.322 14.504"></polygon>
            <polygon id="Path_145" points="1.157 27.027 1.157 40.249 10.373 40.249 10.023 37.741 4.345 37.741 4.345 27.027"></polygon>
            <polygon id="Path_146" points="57.46 36.305 54.019 27.03 50.888 27.38 55.888 40.252 58.96 40.252 63.977 27.03 60.789 27.03"></polygon>
            <path d="M87.408,37.763 L81.42,37.763 L81.42,34.863 L85.659,34.863 L85.308,32.354 L81.42,32.354 L81.42,29.554 L87.058,29.554 L86.709,27.027 L78.228,27.027 L78.228,40.248 L87.774,40.248 C87.7073333,39.834 87.646,39.4193333 87.59,39.004 C87.534,38.5886667 87.4733333,38.175 87.408,37.763 Z" id="Path_147"></path>
            <path d="M106.141,35.819 L108.192,35.819 C108.29929,35.8193189 108.406497,35.8129734 108.513,35.8 C108.901,36.538 109.289667,37.28 109.679,38.026 C110.068333,38.772 110.464,39.514 110.866,40.252 L114.482,40.252 C113.976,39.3706667 113.474,38.4793333 112.976,37.578 C112.478,36.6766667 111.975667,35.779 111.469,34.885 C112.036098,34.5385687 112.512569,34.0620985 112.859,33.495 C113.239258,32.8654453 113.431486,32.1402505 113.413,31.405 C113.517526,30.0880405 112.909449,28.8158081 111.819,28.07 C110.685645,27.3568392 109.366606,26.9949822 108.028,27.03 L102.953,27.03 L102.953,40.251 L106.142,40.251 L106.141,35.819 Z M106.141,29.596 L107.93,29.596 C108.493199,29.5630481 109.051112,29.7204896 109.514,30.043 C109.918576,30.3907568 110.132008,30.9113237 110.088,31.443 C110.116555,31.9625366 109.895968,32.4646131 109.494,32.795 C109.056076,33.1261238 108.516518,33.2944261 107.968,33.271 L106.14,33.271 L106.141,29.596 Z" id="Path_148"></path>
            <path d="M9.13,58.812 C9.4482566,58.5211297 9.71146631,58.1752647 9.907,57.791 C10.1069876,57.3893754 10.2133193,56.9476373 10.218,56.499 C10.316002,55.3176718 9.751087,54.17937 8.751,53.543 C7.65491138,52.9169922 6.40657607,52.6075047 5.145,52.649 L0.556,52.649 L0.556,65.871 L5.709,65.871 C6.99945955,65.903264 8.27563701,65.5949119 9.409,64.977 C10.4669279,64.3568462 11.0757105,63.1851537 10.975,61.963 C10.9891645,61.3127081 10.8095457,60.6729032 10.459,60.125 C10.1143003,59.5978954 9.66124083,59.1502903 9.13,58.812 Z M3.744,55.212 L4.949,55.212 C5.44469994,55.1858916 5.93829165,55.2936597 6.378,55.524 C6.72899718,55.7439003 6.92803709,56.1412087 6.894,56.554 C6.92301887,56.9731142 6.6816692,57.3641007 6.294,57.526 C5.78732888,57.7264059 5.24445882,57.8190412 4.7,57.798 L3.747,57.798 L3.744,55.212 Z M7.127,62.98 C6.69309706,63.2387165 6.1926123,63.3639246 5.688,63.34 L3.744,63.34 L3.744,60.326 L5.727,60.326 C6.23240101,60.2987505 6.73225594,60.442472 7.146,60.734 C7.499902,61.014317 7.69535795,61.4492437 7.67,61.9 C7.69661232,62.3323164 7.48934701,62.7457019 7.127,62.983 L7.127,62.98 Z" id="Path_149"></path>
            <path d="M34.133,60.62 C34.1891344,61.3744077 33.9282032,62.1180616 33.413,62.672 C32.9141769,63.1386622 32.2495958,63.3867101 31.567,63.361 C30.8913438,63.3854579 30.2335751,63.1409074 29.738,62.681 C29.2202348,62.1250338 28.9594093,61.3773825 29.019,60.62 L29.019,52.532 L25.83,52.532 L25.83,60.8 C25.7511552,62.2458489 26.3300381,63.6498698 27.405,64.62 C28.5749792,65.5753897 30.0572509,66.0637806 31.566,65.991 C33.0820183,66.0657768 34.5716365,65.5738713 35.745,64.611 C36.8167183,63.6423867 37.3952127,62.2426139 37.32,60.8 L37.32,52.537 L34.132,52.537 L34.133,60.62 Z" id="Path_150"></path>
            <rect id="Rectangle_13" x="55.837" y="52.649" width="3.189" height="13.222"></rect>
            <polygon id="Path_151" points="81.584 63.362 81.584 52.649 78.395 52.649 78.395 65.871 87.611 65.871 87.261 63.363"></polygon>
            <path d="M108.308,52.649 L102.884,52.649 L102.884,65.871 L108.308,65.871 C110.007417,65.9441755 111.656803,65.2860227 112.839,64.063 C114.028598,62.7244634 114.643272,60.9713298 114.55,59.183 C114.619205,57.4761891 114.058668,55.803476 112.975,54.483 C111.776879,53.1971334 110.061007,52.5228438 108.308,52.649 L108.308,52.649 Z M110.37,62.321 C109.814328,62.9760073 108.991654,63.3437651 108.133,63.321 L106.069,63.321 L106.069,55.213 L108.269,55.213 C109.152952,55.1633568 109.998202,55.5808579 110.496,56.313 C111.029469,57.1714668 111.290585,58.1713088 111.245,59.181 C111.336957,60.2986564 111.026255,61.4123596 110.369,62.321 L110.37,62.321 Z" id="Path_152"></path>
            <rect id="Rectangle_14" x="132.835" y="52.649" width="3.189" height="13.222"></rect>
            <path d="M162.783,60.504 L157.339,52.649 L154.306,52.649 L154.306,65.871 L157.495,65.871 L157.495,58.171 C158.389,59.427 159.293333,60.71 160.208,62.02 C161.122667,63.33 162.033,64.6133333 162.939,65.87 L165.972,65.87 L165.972,52.649 L162.783,52.649 L162.783,60.504 Z" id="Path_153"></path>
            <path d="M185.855,58.384 L185.991,60.756 L188.421,60.756 L188.421,63.342 C188.190425,63.3957864 187.956599,63.4345347 187.721,63.458 C187.469209,63.4846076 187.216193,63.4979594 186.963,63.498 C186.069528,63.5218123 185.212633,63.1429285 184.629,62.466 C183.949716,61.5560777 183.625149,60.4298708 183.716,59.298 C183.62735,58.1383777 183.989494,56.9892593 184.727,56.09 C185.339998,55.4040348 186.218063,55.0143503 187.138,55.02 C187.604608,55.018971 188.070293,55.0614886 188.529,55.147 C189.090739,55.2614617 189.645611,55.4073577 190.191,55.584 L191.143,53.406 C190.52664,53.0365618 189.849393,52.7798849 189.143,52.648 C188.472243,52.4951672 187.787776,52.4104045 187.1,52.395 C185.29923,52.3235732 183.549632,53.0029865 182.269,54.271 C180.987804,55.6299862 180.316102,57.4526109 180.409,59.318 C180.318714,61.1182782 180.912403,62.8861286 182.071,64.267 C183.33029,65.5662446 185.097749,66.2451362 186.903,66.123 C187.693853,66.1156048 188.481906,66.02782 189.255,65.861 C189.968608,65.7320459 190.657621,65.4921399 191.297,65.15 L191.297,58.384 L185.855,58.384 Z" id="Path_154"></path>
            <path d="M8.634,84.471 C9.06203228,84.2269332 9.41511657,83.8703907 9.655,83.44 C9.95605237,82.9908476 10.1216287,82.4646134 10.132,81.924 C10.1422882,80.9599824 9.69064064,80.0492529 8.917,79.474 C7.95593724,78.779117 6.78511892,78.4359218 5.601,78.502 C4.82450958,78.5020496 4.05201881,78.6131751 3.307,78.832 C2.5393574,79.0614906 1.82065609,79.4306725 1.187,79.921 L2.704,82.06 C3.11014455,81.7793605 3.54613885,81.5445944 4.004,81.36 C4.42994185,81.1847381 4.88543115,81.0924184 5.346,81.088 C5.76158987,81.0589361 6.17510797,81.1682933 6.522,81.399 C6.7665845,81.5660638 6.91553361,81.8408749 6.922,82.137 C6.92258016,82.5267698 6.70475842,82.8840129 6.358,83.062 C5.89245178,83.3096415 5.36871752,83.4271016 4.842,83.402 L3.364,83.402 L3.675,85.91 L5.269,85.91 C5.75983058,85.8791636 6.2465341,86.0163576 6.649,86.299 C6.96936055,86.5513236 7.149946,86.9414774 7.135,87.349 C7.14579141,87.7436209 6.95076158,88.1155031 6.62,88.331 C6.24971662,88.5787202 5.81129833,88.7045819 5.366,88.691 C4.88693962,88.6935909 4.41067149,88.6179284 3.956,88.467 C3.43398887,88.2823196 2.93502419,88.0380383 2.469,87.739 L0.776,89.877 C1.48831554,90.310185 2.25321356,90.6502891 3.052,90.889 C3.79458564,91.1231891 4.56743219,91.2475049 5.346,91.258 C6.64247788,91.3221382 7.92201552,90.94184 8.973,90.18 C9.85107652,89.5323739 10.3615309,88.4999146 10.343,87.409 C10.3454278,86.7694624 10.1593447,86.1433885 9.808,85.609 C9.52720958,85.1301411 9.12136898,84.7367454 8.634,84.471 Z" id="Path_155"></path>
            <path d="M32.098,82.931 C31.8103956,82.9373815 31.5253143,82.986243 31.252,83.076 C30.9371893,83.1731451 30.6350633,83.3074233 30.352,83.476 C30.8332285,82.7752911 31.4517232,82.1795902 32.17,81.725 C32.8277278,81.2851752 33.5534555,80.9567732 34.318,80.753 L32.84,78.575 C31.0450821,78.9672445 29.4333166,79.9495131 28.262,81.365 C27.1540036,82.568505 26.5152131,84.1299928 26.462,85.765 C26.3473294,87.2899054 26.9367864,88.7834421 28.062,89.819 C29.1730304,90.7352779 30.5795759,91.2158565 32.019,91.171 C33.2708396,91.2252941 34.4866961,90.7446236 35.363,89.849 C36.1697048,89.0532955 36.6248104,87.9680991 36.627,86.835 C36.6363015,85.7657156 36.1653963,84.7486632 35.344,84.064 C34.4432645,83.2910773 33.2840651,82.8864645 32.098,82.931 L32.098,82.931 Z M33.031,88.063 C32.7573012,88.4148641 32.3292277,88.6111733 31.884,88.589 C31.3406316,88.6052661 30.815229,88.3935096 30.435,88.005 C30.0208155,87.5465682 29.7652085,86.966982 29.706,86.352 C29.933738,86.0344552 30.2173577,85.7610011 30.543,85.545 C30.8887238,85.2971386 31.3036066,85.1642082 31.729,85.165 C32.2120287,85.1334182 32.6824595,85.3272771 33.003,85.69 C33.2939104,86.0384035 33.4491088,86.4802039 33.44,86.934 C33.4378299,87.3474302 33.2934051,87.7475116 33.031,88.067 L33.031,88.063 Z" id="Path_156"></path>
            <path d="M30.302,25.347 L30.302,28.914 L29.854,28.914 L29.854,31.639 L28.965,31.639 L28.965,34.854 L28.221,34.854 L28.221,41.306 L34.873,41.306 L34.873,34.854 L34.129,34.854 L34.129,31.639 L33.239,31.639 L33.239,28.914 L32.793,28.914 L32.793,25.347 C32.7912524,24.8648176 32.4613196,24.4458029 31.993,24.331 C32.0540644,24.2482654 32.0863755,24.1478201 32.085,24.045 L32.085,23.891 C32.085,23.747 32.279,23.708 32.285,23.707 L32.367,23.69 L32.367,23.383 C32.3661269,23.3342139 32.3756727,23.2858029 32.395,23.241 C32.7057593,22.7132038 33.1554276,22.2808305 33.695,21.991 L33.848,21.91 L33.702,21.817 C33.4069742,21.6142953 33.0309551,21.5701458 32.697,21.699 C32.2909576,21.8878039 31.9758059,22.2291883 31.82,22.649 L31.745,22.649 L31.745,22.195 C31.745,22.162 31.781,22.15 31.788,22.148 L31.842,22.133 L31.842,21.849 C31.8417352,21.7718219 31.8108222,21.69791 31.7560615,21.6435243 C31.7013007,21.5891387 31.6271781,21.5587343 31.55,21.5589983 C31.3896749,21.5589983 31.2595509,21.6886758 31.259,21.849 L31.259,22.133 L31.313,22.148 C31.313,22.148 31.356,22.159 31.356,22.195 L31.356,22.651 L31.281,22.651 C31.1213071,22.2312871 30.8041483,21.8904491 30.397,21.701 C30.0653693,21.5699973 29.6902362,21.6131376 29.397,21.816 L29.251,21.909 L29.404,21.99 C29.9437554,22.2795792 30.3934846,22.7120112 30.704,23.24 C30.7233273,23.2848029 30.7328731,23.3332139 30.732,23.382 L30.732,23.692 L30.817,23.705 C30.817,23.705 31.002,23.735 31.017,23.889 L31.017,24.037 C31.0151918,24.1417344 31.0474811,24.244218 31.109,24.329 C30.6369713,24.4409122 30.3032509,24.8618878 30.302,25.347 L30.302,25.347 Z M33.055,33.34 C33.054448,34.1724549 32.379455,34.847 31.547,34.847 C30.7149355,34.8464484 30.0405516,34.1720645 30.04,33.34 C30.0419757,32.6091229 30.568771,31.9853197 31.289,31.861 C31.3583195,31.8483506 31.4285484,31.8413277 31.499,31.84 C31.514,31.84 31.529,31.84 31.543,31.84 C31.6286565,31.8400992 31.7140861,31.8488097 31.798,31.866 C32.5179665,31.9882631 33.0462652,32.6097414 33.051,33.34 L33.055,33.34 Z" id="Path_157"></path>
            <path d="M57.312,78.577 C53.6939548,78.5808439 50.7603626,81.5099649 50.751,85.128 L50.751,85.128 L50.751,85.14 L50.751,85.14 C50.7614637,88.7581959 53.6957905,91.6867103 57.314,91.69 C60.931656,91.686158 63.8650876,88.7576445 63.875,85.14 L63.875,85.14 L63.875,85.131 L63.875,85.131 C63.8667359,81.5112415 60.9317665,78.5802968 57.312,78.577 Z M62.929,84.962 L61.545,84.962 C61.5296314,84.6356545 61.4766133,84.3121768 61.387,83.998 C61.7591509,83.5824145 62.0782588,83.1222273 62.337,82.628 C62.7007017,83.3538703 62.9013832,84.1504528 62.925,84.962 L62.929,84.962 Z M62.086,82.178 L60.886,82.868 C60.5508362,82.3448227 60.10546,81.9011529 59.581,81.568 L60.272,80.368 C61.0056799,80.8251429 61.6248571,81.4443201 62.082,82.178 L62.086,82.178 Z M59.075,81.688 C59.7316602,82.0247806 60.2794774,82.5406996 60.655,83.176 C60.1074965,83.4413736 59.5463846,83.6777015 58.974,83.884 C59.1217813,83.1616879 59.1548533,82.4206045 59.072,81.688 L59.075,81.688 Z M59.333,85.479 C59.9956136,85.2065969 60.5968181,84.8039802 61.101,84.295 C61.1645475,84.5698938 61.1980771,84.8508718 61.201,85.133 C61.197102,86.3428741 60.6281814,87.4814553 59.663,88.211 C59.3288466,87.7320213 58.9095566,87.3184936 58.426,86.991 C59.1355718,86.5852885 59.764386,86.0524066 60.281,85.419 C59.9683369,85.485656 59.6475578,85.5058732 59.329,85.479 L59.333,85.479 Z M57.491,79.525 C58.3568887,79.5506586 59.2050616,79.7765642 59.969,80.185 L59.275,81.385 C58.7227888,81.0966566 58.113481,80.934425 57.491,80.91 L57.491,79.525 Z M57.134,79.525 L57.134,80.91 C56.5115589,80.934689 55.9023079,81.0969055 55.35,81.385 L54.657,80.185 C55.4194594,79.7761925 56.2662686,79.5496008 57.131,79.523 L57.134,79.525 Z M54.351,80.368 L55.042,81.568 C54.51754,81.9011529 54.0721638,82.3448227 53.737,82.868 L52.537,82.177 C52.9940837,81.4426671 53.6136671,80.8230837 54.348,80.366 L54.351,80.368 Z M52.351,82.486 L53.551,83.179 C53.2618221,83.7312986 53.0992226,84.3410467 53.075,84.964 L51.69,84.964 C51.7152573,84.0970411 51.9422641,83.2479056 52.353,82.484 L52.351,82.486 Z M51.692,85.308 L53.076,85.308 C53.1008852,85.9308531 53.2634466,86.5404584 53.552,87.093 L52.352,87.786 C51.9435399,87.0210977 51.7182903,86.1717902 51.694,85.305 L51.692,85.308 Z M52.535,88.092 L53.735,87.402 C54.0701385,87.9251976 54.5155197,88.3688724 55.04,88.702 L54.349,89.902 C53.6145037,89.443934 52.9946607,88.8237489 52.537,88.089 L52.535,88.092 Z M57.13,89.692 L57.13,90.744 C56.5574028,90.7233548 55.9912702,90.615793 55.451,90.425 L55.359,90.395 C55.1161241,90.3077503 54.8795616,90.2038366 54.651,90.084 L55.344,88.884 C55.6751791,89.0544138 56.0276251,89.179855 56.392,89.257 C56.463,89.274 56.536,89.291 56.609,89.303 C56.7717796,89.3305831 56.9360804,89.3482822 57.101,89.356 L57.13,89.356 L57.13,89.692 Z M56.86,84.261 C57.0642849,83.8842911 57.1782801,83.4652817 57.193,83.037 C57.1941307,82.9369388 57.2294125,82.8402667 57.293,82.763 C57.5126394,82.4692641 57.6707914,82.1342539 57.758,81.778 C57.3957326,82.0875262 56.9175175,82.2256691 56.446,82.157 C56.2598451,82.1530211 56.0744161,82.1814445 55.898,82.241 C55.7032837,82.2901414 55.5451477,82.4318283 55.475,82.62 C55.457,82.671 55.439,82.708 55.375,82.715 C55.1892649,82.745731 55.0081615,82.7998268 54.836,82.876 C54.6979981,82.9509186 54.5765659,83.0529625 54.479,83.176 C54.3632757,83.2858299 54.3084076,83.4452087 54.332,83.603 L54.682,83.446 L54.953,83.362 C55.026,83.35 55.239,83.262 55.341,83.308 C55.264,83.359 55.12,83.448 55.057,83.487 L54.78,83.651 C54.705,83.694 54.632,83.738 54.543,83.79 C54.58321,83.8111415 54.6276108,83.8230956 54.673,83.825 C54.7209274,83.8287338 54.7690726,83.8287338 54.817,83.825 C54.898,83.818 55.037,83.806 55.165,83.789 C55.4485157,83.758325 55.7290932,83.704818 56.004,83.629 C56.149,83.587 56.104,83.69 56.097,83.75 C56.0231312,84.040547 55.8483982,84.2953807 55.604,84.469 L55.17,84.835 C54.5774927,85.399575 54.4384151,86.2918865 54.831,87.01 C55.0108048,87.3680401 55.2659811,87.6829167 55.579,87.933 C55.868,88.175 56.161,88.413 56.447,88.659 C56.4782423,88.6928674 56.5023838,88.7326501 56.518,88.776 C56.5315873,88.8294839 56.5315873,88.8855161 56.518,88.939 C54.7162328,88.5645219 53.4229966,86.9792647 53.418,85.139 C53.4235043,82.9974106 55.1594061,81.263297 57.301,81.2599982 C57.8530598,81.2594625 58.398762,81.3778116 58.901,81.607 C58.4467275,82.6437143 57.746914,83.5542612 56.862,84.2599982 L56.86,84.261 Z M56.278,82.64 C56.297,82.706 56.227,82.785 56.122,82.818 C56.017,82.851 55.913,82.825 55.892,82.759 L55.892,82.759 L55.892,82.759 C55.873,82.693 55.942,82.614 56.049,82.582 C56.156,82.55 56.257,82.576 56.278,82.641 L56.278,82.641 L56.278,82.64 Z M58.611,90.589 C58.511,90.614 58.402,90.636 58.294,90.655 C58.0271722,90.7043296 57.7571425,90.7344072 57.486,90.745 L57.486,89.36 C57.542,89.36 57.596,89.348 57.652,89.344 C57.723,89.338 57.795,89.332 57.864,89.324 L57.864,89.324 C57.988,89.308 58.11,89.284 58.231,89.257 L58.231,89.257 C58.312,89.239 58.393,89.222 58.473,89.199 L58.473,89.199 C58.7469897,89.121968 59.0123733,89.0170879 59.265,88.886 L59.959,90.086 C59.5338178,90.3116043 59.0809869,90.4807016 58.612,90.589 L58.611,90.589 Z M60.37,89.83 C60.2548064,89.3672985 60.0725433,88.9239376 59.829,88.514 C60.244978,88.2096518 60.6021247,87.8321742 60.883,87.4 L62.083,88.09 C61.6461126,88.7878951 61.0621966,89.3820492 60.372,89.831 L60.37,89.83 Z M62.264,87.784 L61.064,87.091 C61.3525534,86.5384584 61.5151148,85.9288531 61.54,85.306 L62.925,85.306 C62.9009754,86.1718757 62.6756959,87.0202686 62.267,87.784 L62.264,87.784 Z" id="Path_158"></path>
        </g>
    </g>
</svg>